ARM GAS  C:\Users\natha\AppData\Local\Temp\ccy8crBk.s 			page 1


   1              		.syntax unified
   2              		.cpu cortex-m3
   3              		.fpu softvfp
   4              		.eabi_attribute 20, 1
   5              		.eabi_attribute 21, 1
   6              		.eabi_attribute 23, 3
   7              		.eabi_attribute 24, 1
   8              		.eabi_attribute 25, 1
   9              		.eabi_attribute 26, 1
  10              		.eabi_attribute 30, 1
  11              		.eabi_attribute 34, 1
  12              		.eabi_attribute 18, 4
  13              		.thumb
  14              		.file	"ConsolePort_2_RegD0.c"
  15              		.text
  16              	.Ltext0:
  17              		.cfi_sections	.debug_frame
  18              		.section	.text.ConsolePort_2_RegD0_EnableInt,"ax",%progbits
  19              		.align	2
  20              		.global	ConsolePort_2_RegD0_EnableInt
  21              		.thumb
  22              		.thumb_func
  23              		.type	ConsolePort_2_RegD0_EnableInt, %function
  24              	ConsolePort_2_RegD0_EnableInt:
  25              	.LFB4:
  26              		.file 1 "Generated_Source\\PSoC5\\ConsolePort_2_RegD0.c"
   1:Generated_Source\PSoC5/ConsolePort_2_RegD0.c **** /*******************************************************************************
   2:Generated_Source\PSoC5/ConsolePort_2_RegD0.c **** * File Name: ConsolePort_2_RegD0.c
   3:Generated_Source\PSoC5/ConsolePort_2_RegD0.c **** * Version 2.30
   4:Generated_Source\PSoC5/ConsolePort_2_RegD0.c **** *
   5:Generated_Source\PSoC5/ConsolePort_2_RegD0.c **** * Description:
   6:Generated_Source\PSoC5/ConsolePort_2_RegD0.c **** *  This file provides the API source code for the Shift Register component.
   7:Generated_Source\PSoC5/ConsolePort_2_RegD0.c **** *
   8:Generated_Source\PSoC5/ConsolePort_2_RegD0.c **** * Note: none
   9:Generated_Source\PSoC5/ConsolePort_2_RegD0.c **** *
  10:Generated_Source\PSoC5/ConsolePort_2_RegD0.c **** ********************************************************************************
  11:Generated_Source\PSoC5/ConsolePort_2_RegD0.c **** * Copyright 2008-2013, Cypress Semiconductor Corporation.  All rights reserved.
  12:Generated_Source\PSoC5/ConsolePort_2_RegD0.c **** * You may use this file only in accordance with the license, terms, conditions,
  13:Generated_Source\PSoC5/ConsolePort_2_RegD0.c **** * disclaimers, and limitations in the end user license agreement accompanying
  14:Generated_Source\PSoC5/ConsolePort_2_RegD0.c **** * the software package with which this file was provided.
  15:Generated_Source\PSoC5/ConsolePort_2_RegD0.c **** ********************************************************************************/
  16:Generated_Source\PSoC5/ConsolePort_2_RegD0.c **** 
  17:Generated_Source\PSoC5/ConsolePort_2_RegD0.c **** #include "ConsolePort_2_RegD0.h"
  18:Generated_Source\PSoC5/ConsolePort_2_RegD0.c **** 
  19:Generated_Source\PSoC5/ConsolePort_2_RegD0.c **** uint8 ConsolePort_2_RegD0_initVar = 0u;
  20:Generated_Source\PSoC5/ConsolePort_2_RegD0.c **** 
  21:Generated_Source\PSoC5/ConsolePort_2_RegD0.c **** 
  22:Generated_Source\PSoC5/ConsolePort_2_RegD0.c **** /*******************************************************************************
  23:Generated_Source\PSoC5/ConsolePort_2_RegD0.c **** * Function Name: ConsolePort_2_RegD0_Start
  24:Generated_Source\PSoC5/ConsolePort_2_RegD0.c **** ********************************************************************************
  25:Generated_Source\PSoC5/ConsolePort_2_RegD0.c **** *
  26:Generated_Source\PSoC5/ConsolePort_2_RegD0.c **** * Summary:
  27:Generated_Source\PSoC5/ConsolePort_2_RegD0.c **** *  Starts the Shift Register.
  28:Generated_Source\PSoC5/ConsolePort_2_RegD0.c **** *
  29:Generated_Source\PSoC5/ConsolePort_2_RegD0.c **** * Parameters:
  30:Generated_Source\PSoC5/ConsolePort_2_RegD0.c **** *  None.
  31:Generated_Source\PSoC5/ConsolePort_2_RegD0.c **** *
ARM GAS  C:\Users\natha\AppData\Local\Temp\ccy8crBk.s 			page 2


  32:Generated_Source\PSoC5/ConsolePort_2_RegD0.c **** * Return:
  33:Generated_Source\PSoC5/ConsolePort_2_RegD0.c **** *  None.
  34:Generated_Source\PSoC5/ConsolePort_2_RegD0.c **** *
  35:Generated_Source\PSoC5/ConsolePort_2_RegD0.c **** * Global Variables:
  36:Generated_Source\PSoC5/ConsolePort_2_RegD0.c **** *  ConsolePort_2_RegD0_initVar - used to check initial configuration, modified on
  37:Generated_Source\PSoC5/ConsolePort_2_RegD0.c **** *  first function call.
  38:Generated_Source\PSoC5/ConsolePort_2_RegD0.c **** *
  39:Generated_Source\PSoC5/ConsolePort_2_RegD0.c **** * Reentrant:
  40:Generated_Source\PSoC5/ConsolePort_2_RegD0.c **** *  No.
  41:Generated_Source\PSoC5/ConsolePort_2_RegD0.c **** *
  42:Generated_Source\PSoC5/ConsolePort_2_RegD0.c **** *******************************************************************************/
  43:Generated_Source\PSoC5/ConsolePort_2_RegD0.c **** void ConsolePort_2_RegD0_Start(void) 
  44:Generated_Source\PSoC5/ConsolePort_2_RegD0.c **** {
  45:Generated_Source\PSoC5/ConsolePort_2_RegD0.c ****     if(0u == ConsolePort_2_RegD0_initVar)
  46:Generated_Source\PSoC5/ConsolePort_2_RegD0.c ****     {
  47:Generated_Source\PSoC5/ConsolePort_2_RegD0.c ****         ConsolePort_2_RegD0_Init();
  48:Generated_Source\PSoC5/ConsolePort_2_RegD0.c ****         ConsolePort_2_RegD0_initVar = 1u; /* Component initialized */
  49:Generated_Source\PSoC5/ConsolePort_2_RegD0.c ****     }
  50:Generated_Source\PSoC5/ConsolePort_2_RegD0.c **** 
  51:Generated_Source\PSoC5/ConsolePort_2_RegD0.c ****     ConsolePort_2_RegD0_Enable();
  52:Generated_Source\PSoC5/ConsolePort_2_RegD0.c **** }
  53:Generated_Source\PSoC5/ConsolePort_2_RegD0.c **** 
  54:Generated_Source\PSoC5/ConsolePort_2_RegD0.c **** 
  55:Generated_Source\PSoC5/ConsolePort_2_RegD0.c **** /*******************************************************************************
  56:Generated_Source\PSoC5/ConsolePort_2_RegD0.c **** * Function Name: ConsolePort_2_RegD0_Enable
  57:Generated_Source\PSoC5/ConsolePort_2_RegD0.c **** ********************************************************************************
  58:Generated_Source\PSoC5/ConsolePort_2_RegD0.c **** *
  59:Generated_Source\PSoC5/ConsolePort_2_RegD0.c **** * Summary:
  60:Generated_Source\PSoC5/ConsolePort_2_RegD0.c **** *  Enables the Shift Register.
  61:Generated_Source\PSoC5/ConsolePort_2_RegD0.c **** *
  62:Generated_Source\PSoC5/ConsolePort_2_RegD0.c **** * Parameters:
  63:Generated_Source\PSoC5/ConsolePort_2_RegD0.c **** *  void.
  64:Generated_Source\PSoC5/ConsolePort_2_RegD0.c **** *
  65:Generated_Source\PSoC5/ConsolePort_2_RegD0.c **** * Return:
  66:Generated_Source\PSoC5/ConsolePort_2_RegD0.c **** *  void.
  67:Generated_Source\PSoC5/ConsolePort_2_RegD0.c **** *
  68:Generated_Source\PSoC5/ConsolePort_2_RegD0.c **** *******************************************************************************/
  69:Generated_Source\PSoC5/ConsolePort_2_RegD0.c **** void ConsolePort_2_RegD0_Enable(void) 
  70:Generated_Source\PSoC5/ConsolePort_2_RegD0.c **** {
  71:Generated_Source\PSoC5/ConsolePort_2_RegD0.c ****     /* Changing address in Datapath Control Store
  72:Generated_Source\PSoC5/ConsolePort_2_RegD0.c ****        from NOP to component state machine commands space */
  73:Generated_Source\PSoC5/ConsolePort_2_RegD0.c ****     ConsolePort_2_RegD0_SR_CONTROL |= ConsolePort_2_RegD0_CLK_EN;
  74:Generated_Source\PSoC5/ConsolePort_2_RegD0.c **** 
  75:Generated_Source\PSoC5/ConsolePort_2_RegD0.c ****     ConsolePort_2_RegD0_EnableInt();
  76:Generated_Source\PSoC5/ConsolePort_2_RegD0.c **** }
  77:Generated_Source\PSoC5/ConsolePort_2_RegD0.c **** 
  78:Generated_Source\PSoC5/ConsolePort_2_RegD0.c **** 
  79:Generated_Source\PSoC5/ConsolePort_2_RegD0.c **** /*******************************************************************************
  80:Generated_Source\PSoC5/ConsolePort_2_RegD0.c **** * Function Name: ConsolePort_2_RegD0_Init
  81:Generated_Source\PSoC5/ConsolePort_2_RegD0.c **** ********************************************************************************
  82:Generated_Source\PSoC5/ConsolePort_2_RegD0.c **** *
  83:Generated_Source\PSoC5/ConsolePort_2_RegD0.c **** * Summary:
  84:Generated_Source\PSoC5/ConsolePort_2_RegD0.c **** *  Initializes Tx and/or Rx interrupt sources with initial values.
  85:Generated_Source\PSoC5/ConsolePort_2_RegD0.c **** *
  86:Generated_Source\PSoC5/ConsolePort_2_RegD0.c **** * Parameters:
  87:Generated_Source\PSoC5/ConsolePort_2_RegD0.c **** *  void.
  88:Generated_Source\PSoC5/ConsolePort_2_RegD0.c **** *
ARM GAS  C:\Users\natha\AppData\Local\Temp\ccy8crBk.s 			page 3


  89:Generated_Source\PSoC5/ConsolePort_2_RegD0.c **** * Return:
  90:Generated_Source\PSoC5/ConsolePort_2_RegD0.c **** *  void.
  91:Generated_Source\PSoC5/ConsolePort_2_RegD0.c **** *
  92:Generated_Source\PSoC5/ConsolePort_2_RegD0.c **** *******************************************************************************/
  93:Generated_Source\PSoC5/ConsolePort_2_RegD0.c **** void ConsolePort_2_RegD0_Init(void) 
  94:Generated_Source\PSoC5/ConsolePort_2_RegD0.c **** {
  95:Generated_Source\PSoC5/ConsolePort_2_RegD0.c ****     ConsolePort_2_RegD0_SetIntMode(ConsolePort_2_RegD0_INT_SRC);
  96:Generated_Source\PSoC5/ConsolePort_2_RegD0.c **** }
  97:Generated_Source\PSoC5/ConsolePort_2_RegD0.c **** 
  98:Generated_Source\PSoC5/ConsolePort_2_RegD0.c **** 
  99:Generated_Source\PSoC5/ConsolePort_2_RegD0.c **** /*******************************************************************************
 100:Generated_Source\PSoC5/ConsolePort_2_RegD0.c **** * Function Name: ConsolePort_2_RegD0_Stop
 101:Generated_Source\PSoC5/ConsolePort_2_RegD0.c **** ********************************************************************************
 102:Generated_Source\PSoC5/ConsolePort_2_RegD0.c **** *
 103:Generated_Source\PSoC5/ConsolePort_2_RegD0.c **** * Summary:
 104:Generated_Source\PSoC5/ConsolePort_2_RegD0.c **** *  Disables the Shift Register
 105:Generated_Source\PSoC5/ConsolePort_2_RegD0.c **** *
 106:Generated_Source\PSoC5/ConsolePort_2_RegD0.c **** * Parameters:
 107:Generated_Source\PSoC5/ConsolePort_2_RegD0.c **** *  None.
 108:Generated_Source\PSoC5/ConsolePort_2_RegD0.c **** *
 109:Generated_Source\PSoC5/ConsolePort_2_RegD0.c **** * Return:
 110:Generated_Source\PSoC5/ConsolePort_2_RegD0.c **** *  None.
 111:Generated_Source\PSoC5/ConsolePort_2_RegD0.c **** *
 112:Generated_Source\PSoC5/ConsolePort_2_RegD0.c **** *******************************************************************************/
 113:Generated_Source\PSoC5/ConsolePort_2_RegD0.c **** void ConsolePort_2_RegD0_Stop(void) 
 114:Generated_Source\PSoC5/ConsolePort_2_RegD0.c **** {
 115:Generated_Source\PSoC5/ConsolePort_2_RegD0.c ****     /*changing Datapath Control Store address to NOP space*/
 116:Generated_Source\PSoC5/ConsolePort_2_RegD0.c ****     ConsolePort_2_RegD0_SR_CONTROL &= ((uint8) ~ConsolePort_2_RegD0_CLK_EN);
 117:Generated_Source\PSoC5/ConsolePort_2_RegD0.c ****     ConsolePort_2_RegD0_DisableInt();
 118:Generated_Source\PSoC5/ConsolePort_2_RegD0.c **** }
 119:Generated_Source\PSoC5/ConsolePort_2_RegD0.c **** 
 120:Generated_Source\PSoC5/ConsolePort_2_RegD0.c **** 
 121:Generated_Source\PSoC5/ConsolePort_2_RegD0.c **** /*******************************************************************************
 122:Generated_Source\PSoC5/ConsolePort_2_RegD0.c **** * Function Name: ConsolePort_2_RegD0_EnableInt
 123:Generated_Source\PSoC5/ConsolePort_2_RegD0.c **** ********************************************************************************
 124:Generated_Source\PSoC5/ConsolePort_2_RegD0.c **** *
 125:Generated_Source\PSoC5/ConsolePort_2_RegD0.c **** * Summary:
 126:Generated_Source\PSoC5/ConsolePort_2_RegD0.c **** *  Enables the Shift Register interrupt.
 127:Generated_Source\PSoC5/ConsolePort_2_RegD0.c **** *
 128:Generated_Source\PSoC5/ConsolePort_2_RegD0.c **** * Parameters:
 129:Generated_Source\PSoC5/ConsolePort_2_RegD0.c **** *  None.
 130:Generated_Source\PSoC5/ConsolePort_2_RegD0.c **** *
 131:Generated_Source\PSoC5/ConsolePort_2_RegD0.c **** * Return:
 132:Generated_Source\PSoC5/ConsolePort_2_RegD0.c **** *  None.
 133:Generated_Source\PSoC5/ConsolePort_2_RegD0.c **** *
 134:Generated_Source\PSoC5/ConsolePort_2_RegD0.c **** *******************************************************************************/
 135:Generated_Source\PSoC5/ConsolePort_2_RegD0.c **** void ConsolePort_2_RegD0_EnableInt(void) 
 136:Generated_Source\PSoC5/ConsolePort_2_RegD0.c **** {
  27              		.loc 1 136 0
  28              		.cfi_startproc
  29              		@ args = 0, pretend = 0, frame = 0
  30              		@ frame_needed = 0, uses_anonymous_args = 0
  31 0000 08B5     		push	{r3, lr}
  32              		.cfi_def_cfa_offset 8
  33              		.cfi_offset 3, -8
  34              		.cfi_offset 14, -4
 137:Generated_Source\PSoC5/ConsolePort_2_RegD0.c ****     uint8 interruptState;
ARM GAS  C:\Users\natha\AppData\Local\Temp\ccy8crBk.s 			page 4


 138:Generated_Source\PSoC5/ConsolePort_2_RegD0.c **** 
 139:Generated_Source\PSoC5/ConsolePort_2_RegD0.c ****     interruptState = CyEnterCriticalSection();
  35              		.loc 1 139 0
  36 0002 FFF7FEFF 		bl	CyEnterCriticalSection
  37              	.LVL0:
 140:Generated_Source\PSoC5/ConsolePort_2_RegD0.c ****     ConsolePort_2_RegD0_SR_AUX_CONTROL |= ConsolePort_2_RegD0_INTERRUPTS_ENABLE;
  38              		.loc 1 140 0
  39 0006 044A     		ldr	r2, .L3
  40 0008 1378     		ldrb	r3, [r2]	@ zero_extendqisi2
  41 000a 43F01003 		orr	r3, r3, #16
  42 000e 1370     		strb	r3, [r2]
 141:Generated_Source\PSoC5/ConsolePort_2_RegD0.c ****     CyExitCriticalSection(interruptState);
  43              		.loc 1 141 0
  44 0010 FFF7FEFF 		bl	CyExitCriticalSection
  45              	.LVL1:
  46 0014 08BD     		pop	{r3, pc}
  47              	.L4:
  48 0016 00BF     		.align	2
  49              	.L3:
  50 0018 9A640040 		.word	1073767578
  51              		.cfi_endproc
  52              	.LFE4:
  53              		.size	ConsolePort_2_RegD0_EnableInt, .-ConsolePort_2_RegD0_EnableInt
  54              		.section	.text.ConsolePort_2_RegD0_Enable,"ax",%progbits
  55              		.align	2
  56              		.global	ConsolePort_2_RegD0_Enable
  57              		.thumb
  58              		.thumb_func
  59              		.type	ConsolePort_2_RegD0_Enable, %function
  60              	ConsolePort_2_RegD0_Enable:
  61              	.LFB1:
  70:Generated_Source\PSoC5/ConsolePort_2_RegD0.c ****     /* Changing address in Datapath Control Store
  62              		.loc 1 70 0
  63              		.cfi_startproc
  64              		@ args = 0, pretend = 0, frame = 0
  65              		@ frame_needed = 0, uses_anonymous_args = 0
  66 0000 08B5     		push	{r3, lr}
  67              		.cfi_def_cfa_offset 8
  68              		.cfi_offset 3, -8
  69              		.cfi_offset 14, -4
  73:Generated_Source\PSoC5/ConsolePort_2_RegD0.c **** 
  70              		.loc 1 73 0
  71 0002 044A     		ldr	r2, .L7
  72 0004 1378     		ldrb	r3, [r2]	@ zero_extendqisi2
  73 0006 43F00103 		orr	r3, r3, #1
  74 000a 1370     		strb	r3, [r2]
  75:Generated_Source\PSoC5/ConsolePort_2_RegD0.c **** }
  75              		.loc 1 75 0
  76 000c FFF7FEFF 		bl	ConsolePort_2_RegD0_EnableInt
  77              	.LVL2:
  78 0010 08BD     		pop	{r3, pc}
  79              	.L8:
  80 0012 00BF     		.align	2
  81              	.L7:
  82 0014 79640040 		.word	1073767545
  83              		.cfi_endproc
  84              	.LFE1:
ARM GAS  C:\Users\natha\AppData\Local\Temp\ccy8crBk.s 			page 5


  85              		.size	ConsolePort_2_RegD0_Enable, .-ConsolePort_2_RegD0_Enable
  86              		.section	.text.ConsolePort_2_RegD0_DisableInt,"ax",%progbits
  87              		.align	2
  88              		.global	ConsolePort_2_RegD0_DisableInt
  89              		.thumb
  90              		.thumb_func
  91              		.type	ConsolePort_2_RegD0_DisableInt, %function
  92              	ConsolePort_2_RegD0_DisableInt:
  93              	.LFB5:
 142:Generated_Source\PSoC5/ConsolePort_2_RegD0.c **** }
 143:Generated_Source\PSoC5/ConsolePort_2_RegD0.c **** 
 144:Generated_Source\PSoC5/ConsolePort_2_RegD0.c **** 
 145:Generated_Source\PSoC5/ConsolePort_2_RegD0.c **** /*******************************************************************************
 146:Generated_Source\PSoC5/ConsolePort_2_RegD0.c **** * Function Name: ConsolePort_2_RegD0_DisableInt
 147:Generated_Source\PSoC5/ConsolePort_2_RegD0.c **** ********************************************************************************
 148:Generated_Source\PSoC5/ConsolePort_2_RegD0.c **** *
 149:Generated_Source\PSoC5/ConsolePort_2_RegD0.c **** * Summary:
 150:Generated_Source\PSoC5/ConsolePort_2_RegD0.c **** *  Disables the Shift Register interrupt.
 151:Generated_Source\PSoC5/ConsolePort_2_RegD0.c **** *
 152:Generated_Source\PSoC5/ConsolePort_2_RegD0.c **** * Parameters:
 153:Generated_Source\PSoC5/ConsolePort_2_RegD0.c **** *  None.
 154:Generated_Source\PSoC5/ConsolePort_2_RegD0.c **** *
 155:Generated_Source\PSoC5/ConsolePort_2_RegD0.c **** * Return:
 156:Generated_Source\PSoC5/ConsolePort_2_RegD0.c **** *  None.
 157:Generated_Source\PSoC5/ConsolePort_2_RegD0.c **** *
 158:Generated_Source\PSoC5/ConsolePort_2_RegD0.c **** *******************************************************************************/
 159:Generated_Source\PSoC5/ConsolePort_2_RegD0.c **** void ConsolePort_2_RegD0_DisableInt(void) 
 160:Generated_Source\PSoC5/ConsolePort_2_RegD0.c **** {
  94              		.loc 1 160 0
  95              		.cfi_startproc
  96              		@ args = 0, pretend = 0, frame = 0
  97              		@ frame_needed = 0, uses_anonymous_args = 0
  98 0000 08B5     		push	{r3, lr}
  99              		.cfi_def_cfa_offset 8
 100              		.cfi_offset 3, -8
 101              		.cfi_offset 14, -4
 161:Generated_Source\PSoC5/ConsolePort_2_RegD0.c ****     uint8 interruptState;
 162:Generated_Source\PSoC5/ConsolePort_2_RegD0.c **** 
 163:Generated_Source\PSoC5/ConsolePort_2_RegD0.c ****     interruptState = CyEnterCriticalSection();
 102              		.loc 1 163 0
 103 0002 FFF7FEFF 		bl	CyEnterCriticalSection
 104              	.LVL3:
 164:Generated_Source\PSoC5/ConsolePort_2_RegD0.c ****     ConsolePort_2_RegD0_SR_AUX_CONTROL &= ((uint8) ~ConsolePort_2_RegD0_INTERRUPTS_ENABLE);
 105              		.loc 1 164 0
 106 0006 044A     		ldr	r2, .L11
 107 0008 1378     		ldrb	r3, [r2]	@ zero_extendqisi2
 108 000a 03F0EF03 		and	r3, r3, #239
 109 000e 1370     		strb	r3, [r2]
 165:Generated_Source\PSoC5/ConsolePort_2_RegD0.c ****     CyExitCriticalSection(interruptState);
 110              		.loc 1 165 0
 111 0010 FFF7FEFF 		bl	CyExitCriticalSection
 112              	.LVL4:
 113 0014 08BD     		pop	{r3, pc}
 114              	.L12:
 115 0016 00BF     		.align	2
 116              	.L11:
 117 0018 9A640040 		.word	1073767578
ARM GAS  C:\Users\natha\AppData\Local\Temp\ccy8crBk.s 			page 6


 118              		.cfi_endproc
 119              	.LFE5:
 120              		.size	ConsolePort_2_RegD0_DisableInt, .-ConsolePort_2_RegD0_DisableInt
 121              		.section	.text.ConsolePort_2_RegD0_Stop,"ax",%progbits
 122              		.align	2
 123              		.global	ConsolePort_2_RegD0_Stop
 124              		.thumb
 125              		.thumb_func
 126              		.type	ConsolePort_2_RegD0_Stop, %function
 127              	ConsolePort_2_RegD0_Stop:
 128              	.LFB3:
 114:Generated_Source\PSoC5/ConsolePort_2_RegD0.c ****     /*changing Datapath Control Store address to NOP space*/
 129              		.loc 1 114 0
 130              		.cfi_startproc
 131              		@ args = 0, pretend = 0, frame = 0
 132              		@ frame_needed = 0, uses_anonymous_args = 0
 133 0000 08B5     		push	{r3, lr}
 134              		.cfi_def_cfa_offset 8
 135              		.cfi_offset 3, -8
 136              		.cfi_offset 14, -4
 116:Generated_Source\PSoC5/ConsolePort_2_RegD0.c ****     ConsolePort_2_RegD0_DisableInt();
 137              		.loc 1 116 0
 138 0002 044A     		ldr	r2, .L15
 139 0004 1378     		ldrb	r3, [r2]	@ zero_extendqisi2
 140 0006 03F0FE03 		and	r3, r3, #254
 141 000a 1370     		strb	r3, [r2]
 117:Generated_Source\PSoC5/ConsolePort_2_RegD0.c **** }
 142              		.loc 1 117 0
 143 000c FFF7FEFF 		bl	ConsolePort_2_RegD0_DisableInt
 144              	.LVL5:
 145 0010 08BD     		pop	{r3, pc}
 146              	.L16:
 147 0012 00BF     		.align	2
 148              	.L15:
 149 0014 79640040 		.word	1073767545
 150              		.cfi_endproc
 151              	.LFE3:
 152              		.size	ConsolePort_2_RegD0_Stop, .-ConsolePort_2_RegD0_Stop
 153              		.section	.text.ConsolePort_2_RegD0_GetFIFOStatus,"ax",%progbits
 154              		.align	2
 155              		.global	ConsolePort_2_RegD0_GetFIFOStatus
 156              		.thumb
 157              		.thumb_func
 158              		.type	ConsolePort_2_RegD0_GetFIFOStatus, %function
 159              	ConsolePort_2_RegD0_GetFIFOStatus:
 160              	.LFB6:
 166:Generated_Source\PSoC5/ConsolePort_2_RegD0.c **** }
 167:Generated_Source\PSoC5/ConsolePort_2_RegD0.c **** 
 168:Generated_Source\PSoC5/ConsolePort_2_RegD0.c **** 
 169:Generated_Source\PSoC5/ConsolePort_2_RegD0.c **** /*******************************************************************************
 170:Generated_Source\PSoC5/ConsolePort_2_RegD0.c **** * Function Name: ConsolePort_2_RegD0_GetFIFOStatus
 171:Generated_Source\PSoC5/ConsolePort_2_RegD0.c **** ********************************************************************************
 172:Generated_Source\PSoC5/ConsolePort_2_RegD0.c **** *
 173:Generated_Source\PSoC5/ConsolePort_2_RegD0.c **** * Summary:
 174:Generated_Source\PSoC5/ConsolePort_2_RegD0.c **** *  Returns current status of input or output FIFO.
 175:Generated_Source\PSoC5/ConsolePort_2_RegD0.c **** *
 176:Generated_Source\PSoC5/ConsolePort_2_RegD0.c **** * Parameters:
ARM GAS  C:\Users\natha\AppData\Local\Temp\ccy8crBk.s 			page 7


 177:Generated_Source\PSoC5/ConsolePort_2_RegD0.c **** *  fifoId.
 178:Generated_Source\PSoC5/ConsolePort_2_RegD0.c **** *
 179:Generated_Source\PSoC5/ConsolePort_2_RegD0.c **** * Return:
 180:Generated_Source\PSoC5/ConsolePort_2_RegD0.c **** *  FIFO status.
 181:Generated_Source\PSoC5/ConsolePort_2_RegD0.c **** *
 182:Generated_Source\PSoC5/ConsolePort_2_RegD0.c **** *******************************************************************************/
 183:Generated_Source\PSoC5/ConsolePort_2_RegD0.c **** uint8 ConsolePort_2_RegD0_GetFIFOStatus(uint8 fifoId) 
 184:Generated_Source\PSoC5/ConsolePort_2_RegD0.c **** {
 161              		.loc 1 184 0
 162              		.cfi_startproc
 163              		@ args = 0, pretend = 0, frame = 0
 164              		@ frame_needed = 0, uses_anonymous_args = 0
 165              		@ link register save eliminated.
 166              	.LVL6:
 185:Generated_Source\PSoC5/ConsolePort_2_RegD0.c ****     uint8 result;
 186:Generated_Source\PSoC5/ConsolePort_2_RegD0.c **** 
 187:Generated_Source\PSoC5/ConsolePort_2_RegD0.c ****     result = ConsolePort_2_RegD0_RET_FIFO_NOT_DEFINED;
 188:Generated_Source\PSoC5/ConsolePort_2_RegD0.c **** 
 189:Generated_Source\PSoC5/ConsolePort_2_RegD0.c ****     #if(0u != ConsolePort_2_RegD0_USE_INPUT_FIFO)
 190:Generated_Source\PSoC5/ConsolePort_2_RegD0.c ****         if(ConsolePort_2_RegD0_IN_FIFO == fifoId)
 191:Generated_Source\PSoC5/ConsolePort_2_RegD0.c ****         {
 192:Generated_Source\PSoC5/ConsolePort_2_RegD0.c ****             switch(ConsolePort_2_RegD0_GET_IN_FIFO_STS)
 193:Generated_Source\PSoC5/ConsolePort_2_RegD0.c ****             {
 194:Generated_Source\PSoC5/ConsolePort_2_RegD0.c ****                 case ConsolePort_2_RegD0_IN_FIFO_FULL :
 195:Generated_Source\PSoC5/ConsolePort_2_RegD0.c ****                     result = ConsolePort_2_RegD0_RET_FIFO_FULL;
 196:Generated_Source\PSoC5/ConsolePort_2_RegD0.c ****                     break;
 197:Generated_Source\PSoC5/ConsolePort_2_RegD0.c **** 
 198:Generated_Source\PSoC5/ConsolePort_2_RegD0.c ****                 case ConsolePort_2_RegD0_IN_FIFO_EMPTY :
 199:Generated_Source\PSoC5/ConsolePort_2_RegD0.c ****                     result = ConsolePort_2_RegD0_RET_FIFO_EMPTY;
 200:Generated_Source\PSoC5/ConsolePort_2_RegD0.c ****                     break;
 201:Generated_Source\PSoC5/ConsolePort_2_RegD0.c **** 
 202:Generated_Source\PSoC5/ConsolePort_2_RegD0.c ****                 case ConsolePort_2_RegD0_IN_FIFO_PARTIAL:
 203:Generated_Source\PSoC5/ConsolePort_2_RegD0.c ****                     result = ConsolePort_2_RegD0_RET_FIFO_PARTIAL;
 204:Generated_Source\PSoC5/ConsolePort_2_RegD0.c ****                     break;
 205:Generated_Source\PSoC5/ConsolePort_2_RegD0.c ****                     
 206:Generated_Source\PSoC5/ConsolePort_2_RegD0.c ****                 default:
 207:Generated_Source\PSoC5/ConsolePort_2_RegD0.c ****                     /* Initial result value, while 
 208:Generated_Source\PSoC5/ConsolePort_2_RegD0.c ****                        IN_FIFO_EMPTY case is false 
 209:Generated_Source\PSoC5/ConsolePort_2_RegD0.c ****                      */
 210:Generated_Source\PSoC5/ConsolePort_2_RegD0.c ****                     result = ConsolePort_2_RegD0_RET_FIFO_EMPTY;
 211:Generated_Source\PSoC5/ConsolePort_2_RegD0.c ****                     break;
 212:Generated_Source\PSoC5/ConsolePort_2_RegD0.c ****             }   
 213:Generated_Source\PSoC5/ConsolePort_2_RegD0.c ****         }
 214:Generated_Source\PSoC5/ConsolePort_2_RegD0.c ****     #endif /* (0u != ConsolePort_2_RegD0_USE_INPUT_FIFO) */
 215:Generated_Source\PSoC5/ConsolePort_2_RegD0.c **** 
 216:Generated_Source\PSoC5/ConsolePort_2_RegD0.c ****     if(ConsolePort_2_RegD0_OUT_FIFO == fifoId)
 167              		.loc 1 216 0
 168 0000 0228     		cmp	r0, #2
 169 0002 0AD1     		bne	.L21
 217:Generated_Source\PSoC5/ConsolePort_2_RegD0.c ****     {
 218:Generated_Source\PSoC5/ConsolePort_2_RegD0.c ****         switch(ConsolePort_2_RegD0_GET_OUT_FIFO_STS)
 170              		.loc 1 218 0
 171 0004 074B     		ldr	r3, .L23
 172 0006 1B78     		ldrb	r3, [r3]	@ zero_extendqisi2
 173 0008 C3F34113 		ubfx	r3, r3, #5, #2
 174 000c 3BB1     		cbz	r3, .L22
 175 000e 022B     		cmp	r3, #2
ARM GAS  C:\Users\natha\AppData\Local\Temp\ccy8crBk.s 			page 8


 176 0010 01D0     		beq	.L20
 219:Generated_Source\PSoC5/ConsolePort_2_RegD0.c ****         {
 220:Generated_Source\PSoC5/ConsolePort_2_RegD0.c ****             case ConsolePort_2_RegD0_OUT_FIFO_FULL :
 221:Generated_Source\PSoC5/ConsolePort_2_RegD0.c ****                 result = ConsolePort_2_RegD0_RET_FIFO_FULL;
 177              		.loc 1 221 0
 178 0012 0020     		movs	r0, #0
 179              	.LVL7:
 180 0014 7047     		bx	lr
 181              	.LVL8:
 182              	.L20:
 222:Generated_Source\PSoC5/ConsolePort_2_RegD0.c ****                 break;
 223:Generated_Source\PSoC5/ConsolePort_2_RegD0.c **** 
 224:Generated_Source\PSoC5/ConsolePort_2_RegD0.c ****             case ConsolePort_2_RegD0_OUT_FIFO_EMPTY :
 225:Generated_Source\PSoC5/ConsolePort_2_RegD0.c ****                 result = ConsolePort_2_RegD0_RET_FIFO_EMPTY;
 226:Generated_Source\PSoC5/ConsolePort_2_RegD0.c ****                 break;
 227:Generated_Source\PSoC5/ConsolePort_2_RegD0.c **** 
 228:Generated_Source\PSoC5/ConsolePort_2_RegD0.c ****             case ConsolePort_2_RegD0_OUT_FIFO_PARTIAL :
 229:Generated_Source\PSoC5/ConsolePort_2_RegD0.c ****                 result = ConsolePort_2_RegD0_RET_FIFO_PARTIAL;
 183              		.loc 1 229 0
 184 0016 0120     		movs	r0, #1
 185              	.LVL9:
 230:Generated_Source\PSoC5/ConsolePort_2_RegD0.c ****                 break;
 186              		.loc 1 230 0
 187 0018 7047     		bx	lr
 188              	.LVL10:
 189              	.L21:
 187:Generated_Source\PSoC5/ConsolePort_2_RegD0.c **** 
 190              		.loc 1 187 0
 191 001a FE20     		movs	r0, #254
 192              	.LVL11:
 193 001c 7047     		bx	lr
 194              	.LVL12:
 195              	.L22:
 225:Generated_Source\PSoC5/ConsolePort_2_RegD0.c ****                 break;
 196              		.loc 1 225 0
 197 001e 0220     		movs	r0, #2
 198              	.LVL13:
 231:Generated_Source\PSoC5/ConsolePort_2_RegD0.c **** 
 232:Generated_Source\PSoC5/ConsolePort_2_RegD0.c ****             default:
 233:Generated_Source\PSoC5/ConsolePort_2_RegD0.c ****                 /* Initial result value, while 
 234:Generated_Source\PSoC5/ConsolePort_2_RegD0.c ****                    OUT_FIFO_FULL case is false 
 235:Generated_Source\PSoC5/ConsolePort_2_RegD0.c ****                  */
 236:Generated_Source\PSoC5/ConsolePort_2_RegD0.c ****                 result = ConsolePort_2_RegD0_RET_FIFO_FULL;
 237:Generated_Source\PSoC5/ConsolePort_2_RegD0.c ****                 break;
 238:Generated_Source\PSoC5/ConsolePort_2_RegD0.c ****         }
 239:Generated_Source\PSoC5/ConsolePort_2_RegD0.c ****     }
 240:Generated_Source\PSoC5/ConsolePort_2_RegD0.c **** 
 241:Generated_Source\PSoC5/ConsolePort_2_RegD0.c ****     return(result);
 242:Generated_Source\PSoC5/ConsolePort_2_RegD0.c **** }
 199              		.loc 1 242 0
 200 0020 7047     		bx	lr
 201              	.L24:
 202 0022 00BF     		.align	2
 203              	.L23:
 204 0024 6A640040 		.word	1073767530
 205              		.cfi_endproc
 206              	.LFE6:
ARM GAS  C:\Users\natha\AppData\Local\Temp\ccy8crBk.s 			page 9


 207              		.size	ConsolePort_2_RegD0_GetFIFOStatus, .-ConsolePort_2_RegD0_GetFIFOStatus
 208              		.section	.text.ConsolePort_2_RegD0_SetIntMode,"ax",%progbits
 209              		.align	2
 210              		.global	ConsolePort_2_RegD0_SetIntMode
 211              		.thumb
 212              		.thumb_func
 213              		.type	ConsolePort_2_RegD0_SetIntMode, %function
 214              	ConsolePort_2_RegD0_SetIntMode:
 215              	.LFB7:
 243:Generated_Source\PSoC5/ConsolePort_2_RegD0.c **** 
 244:Generated_Source\PSoC5/ConsolePort_2_RegD0.c **** 
 245:Generated_Source\PSoC5/ConsolePort_2_RegD0.c **** /*******************************************************************************
 246:Generated_Source\PSoC5/ConsolePort_2_RegD0.c **** * Function Name: ConsolePort_2_RegD0_SetIntMode
 247:Generated_Source\PSoC5/ConsolePort_2_RegD0.c **** ********************************************************************************
 248:Generated_Source\PSoC5/ConsolePort_2_RegD0.c **** *
 249:Generated_Source\PSoC5/ConsolePort_2_RegD0.c **** * Summary:
 250:Generated_Source\PSoC5/ConsolePort_2_RegD0.c **** *  Sets the Interrupt Source for the Shift Register interrupt. Multiple
 251:Generated_Source\PSoC5/ConsolePort_2_RegD0.c **** *  sources may be ORed together
 252:Generated_Source\PSoC5/ConsolePort_2_RegD0.c **** *
 253:Generated_Source\PSoC5/ConsolePort_2_RegD0.c **** * Parameters:
 254:Generated_Source\PSoC5/ConsolePort_2_RegD0.c **** *  interruptSource: Byte containing the constant for the selected interrupt
 255:Generated_Source\PSoC5/ConsolePort_2_RegD0.c **** *  source/s.
 256:Generated_Source\PSoC5/ConsolePort_2_RegD0.c **** *
 257:Generated_Source\PSoC5/ConsolePort_2_RegD0.c **** * Return:
 258:Generated_Source\PSoC5/ConsolePort_2_RegD0.c **** *  None.
 259:Generated_Source\PSoC5/ConsolePort_2_RegD0.c **** *
 260:Generated_Source\PSoC5/ConsolePort_2_RegD0.c **** *******************************************************************************/
 261:Generated_Source\PSoC5/ConsolePort_2_RegD0.c **** void ConsolePort_2_RegD0_SetIntMode(uint8 interruptSource) 
 262:Generated_Source\PSoC5/ConsolePort_2_RegD0.c **** {
 216              		.loc 1 262 0
 217              		.cfi_startproc
 218              		@ args = 0, pretend = 0, frame = 0
 219              		@ frame_needed = 0, uses_anonymous_args = 0
 220              		@ link register save eliminated.
 221              	.LVL14:
 263:Generated_Source\PSoC5/ConsolePort_2_RegD0.c ****     ConsolePort_2_RegD0_SR_STATUS_MASK &= ((uint8) ~ConsolePort_2_RegD0_INTS_EN_MASK);          /* 
 222              		.loc 1 263 0
 223 0000 054B     		ldr	r3, .L26
 224 0002 1A78     		ldrb	r2, [r3]	@ zero_extendqisi2
 225 0004 02F0F802 		and	r2, r2, #248
 226 0008 1A70     		strb	r2, [r3]
 264:Generated_Source\PSoC5/ConsolePort_2_RegD0.c ****     ConsolePort_2_RegD0_SR_STATUS_MASK |= (interruptSource & ConsolePort_2_RegD0_INTS_EN_MASK); /* 
 227              		.loc 1 264 0
 228 000a 1A78     		ldrb	r2, [r3]	@ zero_extendqisi2
 229 000c 00F00700 		and	r0, r0, #7
 230              	.LVL15:
 231 0010 1043     		orrs	r0, r0, r2
 232 0012 1870     		strb	r0, [r3]
 233 0014 7047     		bx	lr
 234              	.L27:
 235 0016 00BF     		.align	2
 236              	.L26:
 237 0018 8A640040 		.word	1073767562
 238              		.cfi_endproc
 239              	.LFE7:
 240              		.size	ConsolePort_2_RegD0_SetIntMode, .-ConsolePort_2_RegD0_SetIntMode
 241              		.section	.text.ConsolePort_2_RegD0_Init,"ax",%progbits
ARM GAS  C:\Users\natha\AppData\Local\Temp\ccy8crBk.s 			page 10


 242              		.align	2
 243              		.global	ConsolePort_2_RegD0_Init
 244              		.thumb
 245              		.thumb_func
 246              		.type	ConsolePort_2_RegD0_Init, %function
 247              	ConsolePort_2_RegD0_Init:
 248              	.LFB2:
  94:Generated_Source\PSoC5/ConsolePort_2_RegD0.c ****     ConsolePort_2_RegD0_SetIntMode(ConsolePort_2_RegD0_INT_SRC);
 249              		.loc 1 94 0
 250              		.cfi_startproc
 251              		@ args = 0, pretend = 0, frame = 0
 252              		@ frame_needed = 0, uses_anonymous_args = 0
 253 0000 08B5     		push	{r3, lr}
 254              		.cfi_def_cfa_offset 8
 255              		.cfi_offset 3, -8
 256              		.cfi_offset 14, -4
  95:Generated_Source\PSoC5/ConsolePort_2_RegD0.c **** }
 257              		.loc 1 95 0
 258 0002 0120     		movs	r0, #1
 259 0004 FFF7FEFF 		bl	ConsolePort_2_RegD0_SetIntMode
 260              	.LVL16:
 261 0008 08BD     		pop	{r3, pc}
 262              		.cfi_endproc
 263              	.LFE2:
 264              		.size	ConsolePort_2_RegD0_Init, .-ConsolePort_2_RegD0_Init
 265 000a 00BF     		.section	.text.ConsolePort_2_RegD0_Start,"ax",%progbits
 266              		.align	2
 267              		.global	ConsolePort_2_RegD0_Start
 268              		.thumb
 269              		.thumb_func
 270              		.type	ConsolePort_2_RegD0_Start, %function
 271              	ConsolePort_2_RegD0_Start:
 272              	.LFB0:
  44:Generated_Source\PSoC5/ConsolePort_2_RegD0.c ****     if(0u == ConsolePort_2_RegD0_initVar)
 273              		.loc 1 44 0
 274              		.cfi_startproc
 275              		@ args = 0, pretend = 0, frame = 0
 276              		@ frame_needed = 0, uses_anonymous_args = 0
 277 0000 08B5     		push	{r3, lr}
 278              		.cfi_def_cfa_offset 8
 279              		.cfi_offset 3, -8
 280              		.cfi_offset 14, -4
  45:Generated_Source\PSoC5/ConsolePort_2_RegD0.c ****     {
 281              		.loc 1 45 0
 282 0002 054B     		ldr	r3, .L33
 283 0004 1B78     		ldrb	r3, [r3]	@ zero_extendqisi2
 284 0006 23B9     		cbnz	r3, .L31
  47:Generated_Source\PSoC5/ConsolePort_2_RegD0.c ****         ConsolePort_2_RegD0_initVar = 1u; /* Component initialized */
 285              		.loc 1 47 0
 286 0008 FFF7FEFF 		bl	ConsolePort_2_RegD0_Init
 287              	.LVL17:
  48:Generated_Source\PSoC5/ConsolePort_2_RegD0.c ****     }
 288              		.loc 1 48 0
 289 000c 0122     		movs	r2, #1
 290 000e 024B     		ldr	r3, .L33
 291 0010 1A70     		strb	r2, [r3]
 292              	.L31:
ARM GAS  C:\Users\natha\AppData\Local\Temp\ccy8crBk.s 			page 11


  51:Generated_Source\PSoC5/ConsolePort_2_RegD0.c **** }
 293              		.loc 1 51 0
 294 0012 FFF7FEFF 		bl	ConsolePort_2_RegD0_Enable
 295              	.LVL18:
 296 0016 08BD     		pop	{r3, pc}
 297              	.L34:
 298              		.align	2
 299              	.L33:
 300 0018 00000000 		.word	.LANCHOR0
 301              		.cfi_endproc
 302              	.LFE0:
 303              		.size	ConsolePort_2_RegD0_Start, .-ConsolePort_2_RegD0_Start
 304              		.section	.text.ConsolePort_2_RegD0_GetIntStatus,"ax",%progbits
 305              		.align	2
 306              		.global	ConsolePort_2_RegD0_GetIntStatus
 307              		.thumb
 308              		.thumb_func
 309              		.type	ConsolePort_2_RegD0_GetIntStatus, %function
 310              	ConsolePort_2_RegD0_GetIntStatus:
 311              	.LFB8:
 265:Generated_Source\PSoC5/ConsolePort_2_RegD0.c **** }
 266:Generated_Source\PSoC5/ConsolePort_2_RegD0.c **** 
 267:Generated_Source\PSoC5/ConsolePort_2_RegD0.c **** 
 268:Generated_Source\PSoC5/ConsolePort_2_RegD0.c **** /*******************************************************************************
 269:Generated_Source\PSoC5/ConsolePort_2_RegD0.c **** * Function Name: ConsolePort_2_RegD0_GetIntStatus
 270:Generated_Source\PSoC5/ConsolePort_2_RegD0.c **** ********************************************************************************
 271:Generated_Source\PSoC5/ConsolePort_2_RegD0.c **** *
 272:Generated_Source\PSoC5/ConsolePort_2_RegD0.c **** * Summary:
 273:Generated_Source\PSoC5/ConsolePort_2_RegD0.c **** *  Gets the Shift Register Interrupt status.
 274:Generated_Source\PSoC5/ConsolePort_2_RegD0.c **** *
 275:Generated_Source\PSoC5/ConsolePort_2_RegD0.c **** * Parameters:
 276:Generated_Source\PSoC5/ConsolePort_2_RegD0.c **** *  None.
 277:Generated_Source\PSoC5/ConsolePort_2_RegD0.c **** *
 278:Generated_Source\PSoC5/ConsolePort_2_RegD0.c **** * Return:
 279:Generated_Source\PSoC5/ConsolePort_2_RegD0.c **** *  Byte containing the constant for the selected interrupt source/s.
 280:Generated_Source\PSoC5/ConsolePort_2_RegD0.c **** *
 281:Generated_Source\PSoC5/ConsolePort_2_RegD0.c **** *******************************************************************************/
 282:Generated_Source\PSoC5/ConsolePort_2_RegD0.c **** uint8 ConsolePort_2_RegD0_GetIntStatus(void) 
 283:Generated_Source\PSoC5/ConsolePort_2_RegD0.c **** {
 312              		.loc 1 283 0
 313              		.cfi_startproc
 314              		@ args = 0, pretend = 0, frame = 0
 315              		@ frame_needed = 0, uses_anonymous_args = 0
 316              		@ link register save eliminated.
 284:Generated_Source\PSoC5/ConsolePort_2_RegD0.c ****     return(ConsolePort_2_RegD0_SR_STATUS & ConsolePort_2_RegD0_INTS_EN_MASK);
 317              		.loc 1 284 0
 318 0000 024B     		ldr	r3, .L36
 319 0002 1878     		ldrb	r0, [r3]	@ zero_extendqisi2
 285:Generated_Source\PSoC5/ConsolePort_2_RegD0.c **** }
 320              		.loc 1 285 0
 321 0004 00F00700 		and	r0, r0, #7
 322 0008 7047     		bx	lr
 323              	.L37:
 324 000a 00BF     		.align	2
 325              	.L36:
 326 000c 6A640040 		.word	1073767530
 327              		.cfi_endproc
ARM GAS  C:\Users\natha\AppData\Local\Temp\ccy8crBk.s 			page 12


 328              	.LFE8:
 329              		.size	ConsolePort_2_RegD0_GetIntStatus, .-ConsolePort_2_RegD0_GetIntStatus
 330              		.section	.text.ConsolePort_2_RegD0_WriteRegValue,"ax",%progbits
 331              		.align	2
 332              		.global	ConsolePort_2_RegD0_WriteRegValue
 333              		.thumb
 334              		.thumb_func
 335              		.type	ConsolePort_2_RegD0_WriteRegValue, %function
 336              	ConsolePort_2_RegD0_WriteRegValue:
 337              	.LFB9:
 286:Generated_Source\PSoC5/ConsolePort_2_RegD0.c **** 
 287:Generated_Source\PSoC5/ConsolePort_2_RegD0.c **** 
 288:Generated_Source\PSoC5/ConsolePort_2_RegD0.c **** /*******************************************************************************
 289:Generated_Source\PSoC5/ConsolePort_2_RegD0.c **** * Function Name: ConsolePort_2_RegD0_WriteRegValue
 290:Generated_Source\PSoC5/ConsolePort_2_RegD0.c **** ********************************************************************************
 291:Generated_Source\PSoC5/ConsolePort_2_RegD0.c **** *
 292:Generated_Source\PSoC5/ConsolePort_2_RegD0.c **** * Summary:
 293:Generated_Source\PSoC5/ConsolePort_2_RegD0.c **** *  Send state directly to shift register
 294:Generated_Source\PSoC5/ConsolePort_2_RegD0.c **** *
 295:Generated_Source\PSoC5/ConsolePort_2_RegD0.c **** * Parameters:
 296:Generated_Source\PSoC5/ConsolePort_2_RegD0.c **** *  shiftData: containing shift register state.
 297:Generated_Source\PSoC5/ConsolePort_2_RegD0.c **** *
 298:Generated_Source\PSoC5/ConsolePort_2_RegD0.c **** * Return:
 299:Generated_Source\PSoC5/ConsolePort_2_RegD0.c **** *  None.
 300:Generated_Source\PSoC5/ConsolePort_2_RegD0.c **** *
 301:Generated_Source\PSoC5/ConsolePort_2_RegD0.c **** *******************************************************************************/
 302:Generated_Source\PSoC5/ConsolePort_2_RegD0.c **** void ConsolePort_2_RegD0_WriteRegValue(uint16 shiftData)
 303:Generated_Source\PSoC5/ConsolePort_2_RegD0.c ****                                                                      
 304:Generated_Source\PSoC5/ConsolePort_2_RegD0.c **** {
 338              		.loc 1 304 0
 339              		.cfi_startproc
 340              		@ args = 0, pretend = 0, frame = 0
 341              		@ frame_needed = 0, uses_anonymous_args = 0
 342              		@ link register save eliminated.
 343              	.LVL19:
 305:Generated_Source\PSoC5/ConsolePort_2_RegD0.c ****     CY_SET_REG16(ConsolePort_2_RegD0_SHIFT_REG_LSB_PTR, shiftData);
 344              		.loc 1 305 0
 345 0000 014B     		ldr	r3, .L39
 346 0002 1880     		strh	r0, [r3]	@ movhi
 347 0004 7047     		bx	lr
 348              	.L40:
 349 0006 00BF     		.align	2
 350              	.L39:
 351 0008 08640040 		.word	1073767432
 352              		.cfi_endproc
 353              	.LFE9:
 354              		.size	ConsolePort_2_RegD0_WriteRegValue, .-ConsolePort_2_RegD0_WriteRegValue
 355              		.section	.text.ConsolePort_2_RegD0_ReadRegValue,"ax",%progbits
 356              		.align	2
 357              		.global	ConsolePort_2_RegD0_ReadRegValue
 358              		.thumb
 359              		.thumb_func
 360              		.type	ConsolePort_2_RegD0_ReadRegValue, %function
 361              	ConsolePort_2_RegD0_ReadRegValue:
 362              	.LFB10:
 306:Generated_Source\PSoC5/ConsolePort_2_RegD0.c **** }
 307:Generated_Source\PSoC5/ConsolePort_2_RegD0.c **** 
ARM GAS  C:\Users\natha\AppData\Local\Temp\ccy8crBk.s 			page 13


 308:Generated_Source\PSoC5/ConsolePort_2_RegD0.c **** 
 309:Generated_Source\PSoC5/ConsolePort_2_RegD0.c **** #if(0u != ConsolePort_2_RegD0_USE_INPUT_FIFO)
 310:Generated_Source\PSoC5/ConsolePort_2_RegD0.c ****     /*******************************************************************************
 311:Generated_Source\PSoC5/ConsolePort_2_RegD0.c ****     * Function Name: ConsolePort_2_RegD0_WriteData
 312:Generated_Source\PSoC5/ConsolePort_2_RegD0.c ****     ********************************************************************************
 313:Generated_Source\PSoC5/ConsolePort_2_RegD0.c ****     *
 314:Generated_Source\PSoC5/ConsolePort_2_RegD0.c ****     * Summary:
 315:Generated_Source\PSoC5/ConsolePort_2_RegD0.c ****     *  Send state to FIFO for later transfer to shift register based on the Load
 316:Generated_Source\PSoC5/ConsolePort_2_RegD0.c ****     *  input
 317:Generated_Source\PSoC5/ConsolePort_2_RegD0.c ****     *
 318:Generated_Source\PSoC5/ConsolePort_2_RegD0.c ****     * Parameters:
 319:Generated_Source\PSoC5/ConsolePort_2_RegD0.c ****     *  shiftData: containing shift register state.
 320:Generated_Source\PSoC5/ConsolePort_2_RegD0.c ****     *
 321:Generated_Source\PSoC5/ConsolePort_2_RegD0.c ****     * Return:
 322:Generated_Source\PSoC5/ConsolePort_2_RegD0.c ****     *  Indicates: successful execution of function
 323:Generated_Source\PSoC5/ConsolePort_2_RegD0.c ****     *  when FIFO is empty; and error when FIFO is full.
 324:Generated_Source\PSoC5/ConsolePort_2_RegD0.c ****     *
 325:Generated_Source\PSoC5/ConsolePort_2_RegD0.c ****     * Reentrant:
 326:Generated_Source\PSoC5/ConsolePort_2_RegD0.c ****     *  No.
 327:Generated_Source\PSoC5/ConsolePort_2_RegD0.c ****     *
 328:Generated_Source\PSoC5/ConsolePort_2_RegD0.c ****     *******************************************************************************/
 329:Generated_Source\PSoC5/ConsolePort_2_RegD0.c ****     cystatus ConsolePort_2_RegD0_WriteData(uint16 shiftData)
 330:Generated_Source\PSoC5/ConsolePort_2_RegD0.c ****                                                                          
 331:Generated_Source\PSoC5/ConsolePort_2_RegD0.c ****     {
 332:Generated_Source\PSoC5/ConsolePort_2_RegD0.c ****         cystatus result;
 333:Generated_Source\PSoC5/ConsolePort_2_RegD0.c **** 
 334:Generated_Source\PSoC5/ConsolePort_2_RegD0.c ****         result = CYRET_INVALID_STATE;
 335:Generated_Source\PSoC5/ConsolePort_2_RegD0.c **** 
 336:Generated_Source\PSoC5/ConsolePort_2_RegD0.c ****         /* Writes data into the input FIFO if it is not FULL */
 337:Generated_Source\PSoC5/ConsolePort_2_RegD0.c ****         if(ConsolePort_2_RegD0_RET_FIFO_FULL != (ConsolePort_2_RegD0_GetFIFOStatus(ConsolePort_2_Re
 338:Generated_Source\PSoC5/ConsolePort_2_RegD0.c ****         {
 339:Generated_Source\PSoC5/ConsolePort_2_RegD0.c ****             CY_SET_REG16(ConsolePort_2_RegD0_IN_FIFO_VAL_LSB_PTR, shiftData);
 340:Generated_Source\PSoC5/ConsolePort_2_RegD0.c ****             result = CYRET_SUCCESS;
 341:Generated_Source\PSoC5/ConsolePort_2_RegD0.c ****         }
 342:Generated_Source\PSoC5/ConsolePort_2_RegD0.c **** 
 343:Generated_Source\PSoC5/ConsolePort_2_RegD0.c ****         return(result);
 344:Generated_Source\PSoC5/ConsolePort_2_RegD0.c ****     }
 345:Generated_Source\PSoC5/ConsolePort_2_RegD0.c **** #endif /* (0u != ConsolePort_2_RegD0_USE_INPUT_FIFO) */
 346:Generated_Source\PSoC5/ConsolePort_2_RegD0.c **** 
 347:Generated_Source\PSoC5/ConsolePort_2_RegD0.c **** 
 348:Generated_Source\PSoC5/ConsolePort_2_RegD0.c **** #if(0u != ConsolePort_2_RegD0_USE_OUTPUT_FIFO)
 349:Generated_Source\PSoC5/ConsolePort_2_RegD0.c ****     /*******************************************************************************
 350:Generated_Source\PSoC5/ConsolePort_2_RegD0.c ****     * Function Name: ConsolePort_2_RegD0_ReadData
 351:Generated_Source\PSoC5/ConsolePort_2_RegD0.c ****     ********************************************************************************
 352:Generated_Source\PSoC5/ConsolePort_2_RegD0.c ****     *
 353:Generated_Source\PSoC5/ConsolePort_2_RegD0.c ****     * Summary:
 354:Generated_Source\PSoC5/ConsolePort_2_RegD0.c ****     *  Returns state in FIFO due to Store input.
 355:Generated_Source\PSoC5/ConsolePort_2_RegD0.c ****     *
 356:Generated_Source\PSoC5/ConsolePort_2_RegD0.c ****     * Parameters:
 357:Generated_Source\PSoC5/ConsolePort_2_RegD0.c ****     *  None.
 358:Generated_Source\PSoC5/ConsolePort_2_RegD0.c ****     *
 359:Generated_Source\PSoC5/ConsolePort_2_RegD0.c ****     * Return:
 360:Generated_Source\PSoC5/ConsolePort_2_RegD0.c ****     *  Shift Register state
 361:Generated_Source\PSoC5/ConsolePort_2_RegD0.c ****     *
 362:Generated_Source\PSoC5/ConsolePort_2_RegD0.c ****     * Reentrant:
 363:Generated_Source\PSoC5/ConsolePort_2_RegD0.c ****     *  No.
 364:Generated_Source\PSoC5/ConsolePort_2_RegD0.c ****     *
ARM GAS  C:\Users\natha\AppData\Local\Temp\ccy8crBk.s 			page 14


 365:Generated_Source\PSoC5/ConsolePort_2_RegD0.c ****     *******************************************************************************/
 366:Generated_Source\PSoC5/ConsolePort_2_RegD0.c ****     uint16 ConsolePort_2_RegD0_ReadData(void) 
 367:Generated_Source\PSoC5/ConsolePort_2_RegD0.c ****     {
 368:Generated_Source\PSoC5/ConsolePort_2_RegD0.c ****         return(CY_GET_REG16(ConsolePort_2_RegD0_OUT_FIFO_VAL_LSB_PTR));
 369:Generated_Source\PSoC5/ConsolePort_2_RegD0.c ****     }
 370:Generated_Source\PSoC5/ConsolePort_2_RegD0.c **** #endif /* (0u != ConsolePort_2_RegD0_USE_OUTPUT_FIFO) */
 371:Generated_Source\PSoC5/ConsolePort_2_RegD0.c **** 
 372:Generated_Source\PSoC5/ConsolePort_2_RegD0.c **** 
 373:Generated_Source\PSoC5/ConsolePort_2_RegD0.c **** /*******************************************************************************
 374:Generated_Source\PSoC5/ConsolePort_2_RegD0.c **** * Function Name: ConsolePort_2_RegD0_ReadRegValue
 375:Generated_Source\PSoC5/ConsolePort_2_RegD0.c **** ********************************************************************************
 376:Generated_Source\PSoC5/ConsolePort_2_RegD0.c **** *
 377:Generated_Source\PSoC5/ConsolePort_2_RegD0.c **** * Summary:
 378:Generated_Source\PSoC5/ConsolePort_2_RegD0.c **** *  Directly returns current state in shift register, not data in FIFO due
 379:Generated_Source\PSoC5/ConsolePort_2_RegD0.c **** *  to Store input.
 380:Generated_Source\PSoC5/ConsolePort_2_RegD0.c **** *
 381:Generated_Source\PSoC5/ConsolePort_2_RegD0.c **** * Parameters:
 382:Generated_Source\PSoC5/ConsolePort_2_RegD0.c **** *  None.
 383:Generated_Source\PSoC5/ConsolePort_2_RegD0.c **** *
 384:Generated_Source\PSoC5/ConsolePort_2_RegD0.c **** * Return:
 385:Generated_Source\PSoC5/ConsolePort_2_RegD0.c **** *  Shift Register state. Clears output FIFO.
 386:Generated_Source\PSoC5/ConsolePort_2_RegD0.c **** *
 387:Generated_Source\PSoC5/ConsolePort_2_RegD0.c **** * Reentrant:
 388:Generated_Source\PSoC5/ConsolePort_2_RegD0.c **** *  No.
 389:Generated_Source\PSoC5/ConsolePort_2_RegD0.c **** *
 390:Generated_Source\PSoC5/ConsolePort_2_RegD0.c **** *******************************************************************************/
 391:Generated_Source\PSoC5/ConsolePort_2_RegD0.c **** uint16 ConsolePort_2_RegD0_ReadRegValue(void) 
 392:Generated_Source\PSoC5/ConsolePort_2_RegD0.c **** {
 363              		.loc 1 392 0
 364              		.cfi_startproc
 365              		@ args = 0, pretend = 0, frame = 0
 366              		@ frame_needed = 0, uses_anonymous_args = 0
 367 0000 08B5     		push	{r3, lr}
 368              		.cfi_def_cfa_offset 8
 369              		.cfi_offset 3, -8
 370              		.cfi_offset 14, -4
 393:Generated_Source\PSoC5/ConsolePort_2_RegD0.c ****     uint16 result;
 394:Generated_Source\PSoC5/ConsolePort_2_RegD0.c **** 
 395:Generated_Source\PSoC5/ConsolePort_2_RegD0.c ****     /* Clear FIFO before software capture */
 396:Generated_Source\PSoC5/ConsolePort_2_RegD0.c ****     while(ConsolePort_2_RegD0_RET_FIFO_EMPTY != ConsolePort_2_RegD0_GetFIFOStatus(ConsolePort_2_Reg
 371              		.loc 1 396 0
 372 0002 01E0     		b	.L42
 373              	.L43:
 397:Generated_Source\PSoC5/ConsolePort_2_RegD0.c ****     {
 398:Generated_Source\PSoC5/ConsolePort_2_RegD0.c ****         (void) CY_GET_REG16(ConsolePort_2_RegD0_OUT_FIFO_VAL_LSB_PTR);
 374              		.loc 1 398 0
 375 0004 064B     		ldr	r3, .L45
 376 0006 1B88     		ldrh	r3, [r3]
 377              	.L42:
 396:Generated_Source\PSoC5/ConsolePort_2_RegD0.c ****     {
 378              		.loc 1 396 0
 379 0008 0220     		movs	r0, #2
 380 000a FFF7FEFF 		bl	ConsolePort_2_RegD0_GetFIFOStatus
 381              	.LVL20:
 382 000e 0228     		cmp	r0, #2
 383 0010 F8D1     		bne	.L43
 399:Generated_Source\PSoC5/ConsolePort_2_RegD0.c ****     }
ARM GAS  C:\Users\natha\AppData\Local\Temp\ccy8crBk.s 			page 15


 400:Generated_Source\PSoC5/ConsolePort_2_RegD0.c **** 
 401:Generated_Source\PSoC5/ConsolePort_2_RegD0.c ****     /* Read of 8 bits from A1 causes capture to output FIFO */
 402:Generated_Source\PSoC5/ConsolePort_2_RegD0.c ****     (void) CY_GET_REG8(ConsolePort_2_RegD0_SHIFT_REG_CAPTURE_PTR);
 384              		.loc 1 402 0
 385 0012 044B     		ldr	r3, .L45+4
 386 0014 1B78     		ldrb	r3, [r3]	@ zero_extendqisi2
 403:Generated_Source\PSoC5/ConsolePort_2_RegD0.c **** 
 404:Generated_Source\PSoC5/ConsolePort_2_RegD0.c ****     /* Read output FIFO */
 405:Generated_Source\PSoC5/ConsolePort_2_RegD0.c ****     result  = CY_GET_REG16(ConsolePort_2_RegD0_OUT_FIFO_VAL_LSB_PTR);
 387              		.loc 1 405 0
 388 0016 024B     		ldr	r3, .L45
 389 0018 1888     		ldrh	r0, [r3]
 390              	.LVL21:
 406:Generated_Source\PSoC5/ConsolePort_2_RegD0.c ****     
 407:Generated_Source\PSoC5/ConsolePort_2_RegD0.c ****     #if(0u != (ConsolePort_2_RegD0_SR_SIZE % 8u))
 408:Generated_Source\PSoC5/ConsolePort_2_RegD0.c ****         result &= ((uint16) ConsolePort_2_RegD0_SR_MASK);
 409:Generated_Source\PSoC5/ConsolePort_2_RegD0.c ****     #endif /* (0u != (ConsolePort_2_RegD0_SR_SIZE % 8u)) */
 410:Generated_Source\PSoC5/ConsolePort_2_RegD0.c ****     
 411:Generated_Source\PSoC5/ConsolePort_2_RegD0.c ****     return(result);
 412:Generated_Source\PSoC5/ConsolePort_2_RegD0.c **** }
 391              		.loc 1 412 0
 392 001a 80B2     		uxth	r0, r0
 393 001c 08BD     		pop	{r3, pc}
 394              	.L46:
 395 001e 00BF     		.align	2
 396              	.L45:
 397 0020 58640040 		.word	1073767512
 398 0024 18640040 		.word	1073767448
 399              		.cfi_endproc
 400              	.LFE10:
 401              		.size	ConsolePort_2_RegD0_ReadRegValue, .-ConsolePort_2_RegD0_ReadRegValue
 402              		.global	ConsolePort_2_RegD0_initVar
 403              		.bss
 404              		.set	.LANCHOR0,. + 0
 405              		.type	ConsolePort_2_RegD0_initVar, %object
 406              		.size	ConsolePort_2_RegD0_initVar, 1
 407              	ConsolePort_2_RegD0_initVar:
 408 0000 00       		.space	1
 409              		.text
 410              	.Letext0:
 411              		.file 2 "Generated_Source\\PSoC5\\cytypes.h"
 412              		.file 3 "Generated_Source\\PSoC5\\CyLib.h"
 413              		.section	.debug_info,"",%progbits
 414              	.Ldebug_info0:
 415 0000 B2020000 		.4byte	0x2b2
 416 0004 0400     		.2byte	0x4
 417 0006 00000000 		.4byte	.Ldebug_abbrev0
 418 000a 04       		.byte	0x4
 419 000b 01       		.uleb128 0x1
 420 000c E0010000 		.4byte	.LASF32
 421 0010 01       		.byte	0x1
 422 0011 B3010000 		.4byte	.LASF33
 423 0015 04030000 		.4byte	.LASF34
 424 0019 00000000 		.4byte	.Ldebug_ranges0+0
 425 001d 00000000 		.4byte	0
 426 0021 00000000 		.4byte	.Ldebug_line0
 427 0025 02       		.uleb128 0x2
ARM GAS  C:\Users\natha\AppData\Local\Temp\ccy8crBk.s 			page 16


 428 0026 01       		.byte	0x1
 429 0027 06       		.byte	0x6
 430 0028 2D030000 		.4byte	.LASF0
 431 002c 02       		.uleb128 0x2
 432 002d 01       		.byte	0x1
 433 002e 08       		.byte	0x8
 434 002f F7000000 		.4byte	.LASF1
 435 0033 02       		.uleb128 0x2
 436 0034 02       		.byte	0x2
 437 0035 05       		.byte	0x5
 438 0036 FA020000 		.4byte	.LASF2
 439 003a 02       		.uleb128 0x2
 440 003b 02       		.byte	0x2
 441 003c 07       		.byte	0x7
 442 003d 71000000 		.4byte	.LASF3
 443 0041 02       		.uleb128 0x2
 444 0042 04       		.byte	0x4
 445 0043 05       		.byte	0x5
 446 0044 24030000 		.4byte	.LASF4
 447 0048 02       		.uleb128 0x2
 448 0049 04       		.byte	0x4
 449 004a 07       		.byte	0x7
 450 004b 19010000 		.4byte	.LASF5
 451 004f 02       		.uleb128 0x2
 452 0050 08       		.byte	0x8
 453 0051 05       		.byte	0x5
 454 0052 90020000 		.4byte	.LASF6
 455 0056 02       		.uleb128 0x2
 456 0057 08       		.byte	0x8
 457 0058 07       		.byte	0x7
 458 0059 E0000000 		.4byte	.LASF7
 459 005d 03       		.uleb128 0x3
 460 005e 04       		.byte	0x4
 461 005f 05       		.byte	0x5
 462 0060 696E7400 		.ascii	"int\000"
 463 0064 02       		.uleb128 0x2
 464 0065 04       		.byte	0x4
 465 0066 07       		.byte	0x7
 466 0067 90010000 		.4byte	.LASF8
 467 006b 04       		.uleb128 0x4
 468 006c 2B010000 		.4byte	.LASF9
 469 0070 02       		.byte	0x2
 470 0071 9201     		.2byte	0x192
 471 0073 2C000000 		.4byte	0x2c
 472 0077 04       		.uleb128 0x4
 473 0078 68010000 		.4byte	.LASF10
 474 007c 02       		.byte	0x2
 475 007d 9301     		.2byte	0x193
 476 007f 3A000000 		.4byte	0x3a
 477 0083 02       		.uleb128 0x2
 478 0084 04       		.byte	0x4
 479 0085 04       		.byte	0x4
 480 0086 DA000000 		.4byte	.LASF11
 481 008a 02       		.uleb128 0x2
 482 008b 08       		.byte	0x8
 483 008c 04       		.byte	0x4
 484 008d 38010000 		.4byte	.LASF12
ARM GAS  C:\Users\natha\AppData\Local\Temp\ccy8crBk.s 			page 17


 485 0091 02       		.uleb128 0x2
 486 0092 01       		.byte	0x1
 487 0093 08       		.byte	0x8
 488 0094 9E020000 		.4byte	.LASF13
 489 0098 04       		.uleb128 0x4
 490 0099 05010000 		.4byte	.LASF14
 491 009d 02       		.byte	0x2
 492 009e 3C02     		.2byte	0x23c
 493 00a0 A4000000 		.4byte	0xa4
 494 00a4 05       		.uleb128 0x5
 495 00a5 6B000000 		.4byte	0x6b
 496 00a9 04       		.uleb128 0x4
 497 00aa 00000000 		.4byte	.LASF15
 498 00ae 02       		.byte	0x2
 499 00af 3D02     		.2byte	0x23d
 500 00b1 B5000000 		.4byte	0xb5
 501 00b5 05       		.uleb128 0x5
 502 00b6 77000000 		.4byte	0x77
 503 00ba 02       		.uleb128 0x2
 504 00bb 04       		.byte	0x4
 505 00bc 07       		.byte	0x7
 506 00bd 87020000 		.4byte	.LASF16
 507 00c1 06       		.uleb128 0x6
 508 00c2 DC020000 		.4byte	.LASF17
 509 00c6 01       		.byte	0x1
 510 00c7 87       		.byte	0x87
 511 00c8 00000000 		.4byte	.LFB4
 512 00cc 1C000000 		.4byte	.LFE4-.LFB4
 513 00d0 01       		.uleb128 0x1
 514 00d1 9C       		.byte	0x9c
 515 00d2 F8000000 		.4byte	0xf8
 516 00d6 07       		.uleb128 0x7
 517 00d7 0A010000 		.4byte	.LASF20
 518 00db 01       		.byte	0x1
 519 00dc 89       		.byte	0x89
 520 00dd 6B000000 		.4byte	0x6b
 521 00e1 00000000 		.4byte	.LLST0
 522 00e5 08       		.uleb128 0x8
 523 00e6 06000000 		.4byte	.LVL0
 524 00ea 9D020000 		.4byte	0x29d
 525 00ee 08       		.uleb128 0x8
 526 00ef 14000000 		.4byte	.LVL1
 527 00f3 A8020000 		.4byte	0x2a8
 528 00f7 00       		.byte	0
 529 00f8 06       		.uleb128 0x6
 530 00f9 84000000 		.4byte	.LASF18
 531 00fd 01       		.byte	0x1
 532 00fe 45       		.byte	0x45
 533 00ff 00000000 		.4byte	.LFB1
 534 0103 18000000 		.4byte	.LFE1-.LFB1
 535 0107 01       		.uleb128 0x1
 536 0108 9C       		.byte	0x9c
 537 0109 17010000 		.4byte	0x117
 538 010d 08       		.uleb128 0x8
 539 010e 10000000 		.4byte	.LVL2
 540 0112 C1000000 		.4byte	0xc1
 541 0116 00       		.byte	0
ARM GAS  C:\Users\natha\AppData\Local\Temp\ccy8crBk.s 			page 18


 542 0117 06       		.uleb128 0x6
 543 0118 BB000000 		.4byte	.LASF19
 544 011c 01       		.byte	0x1
 545 011d 9F       		.byte	0x9f
 546 011e 00000000 		.4byte	.LFB5
 547 0122 1C000000 		.4byte	.LFE5-.LFB5
 548 0126 01       		.uleb128 0x1
 549 0127 9C       		.byte	0x9c
 550 0128 4E010000 		.4byte	0x14e
 551 012c 07       		.uleb128 0x7
 552 012d 0A010000 		.4byte	.LASF20
 553 0131 01       		.byte	0x1
 554 0132 A1       		.byte	0xa1
 555 0133 6B000000 		.4byte	0x6b
 556 0137 13000000 		.4byte	.LLST1
 557 013b 08       		.uleb128 0x8
 558 013c 06000000 		.4byte	.LVL3
 559 0140 9D020000 		.4byte	0x29d
 560 0144 08       		.uleb128 0x8
 561 0145 14000000 		.4byte	.LVL4
 562 0149 A8020000 		.4byte	0x2a8
 563 014d 00       		.byte	0
 564 014e 06       		.uleb128 0x6
 565 014f 6E020000 		.4byte	.LASF21
 566 0153 01       		.byte	0x1
 567 0154 71       		.byte	0x71
 568 0155 00000000 		.4byte	.LFB3
 569 0159 18000000 		.4byte	.LFE3-.LFB3
 570 015d 01       		.uleb128 0x1
 571 015e 9C       		.byte	0x9c
 572 015f 6D010000 		.4byte	0x16d
 573 0163 08       		.uleb128 0x8
 574 0164 10000000 		.4byte	.LVL5
 575 0168 17010000 		.4byte	0x117
 576 016c 00       		.byte	0
 577 016d 09       		.uleb128 0x9
 578 016e 39030000 		.4byte	.LASF30
 579 0172 01       		.byte	0x1
 580 0173 B7       		.byte	0xb7
 581 0174 6B000000 		.4byte	0x6b
 582 0178 00000000 		.4byte	.LFB6
 583 017c 28000000 		.4byte	.LFE6-.LFB6
 584 0180 01       		.uleb128 0x1
 585 0181 9C       		.byte	0x9c
 586 0182 A5010000 		.4byte	0x1a5
 587 0186 0A       		.uleb128 0xa
 588 0187 31010000 		.4byte	.LASF24
 589 018b 01       		.byte	0x1
 590 018c B7       		.byte	0xb7
 591 018d 6B000000 		.4byte	0x6b
 592 0191 26000000 		.4byte	.LLST2
 593 0195 07       		.uleb128 0x7
 594 0196 49000000 		.4byte	.LASF22
 595 019a 01       		.byte	0x1
 596 019b B9       		.byte	0xb9
 597 019c 6B000000 		.4byte	0x6b
 598 01a0 92000000 		.4byte	.LLST3
ARM GAS  C:\Users\natha\AppData\Local\Temp\ccy8crBk.s 			page 19


 599 01a4 00       		.byte	0
 600 01a5 0B       		.uleb128 0xb
 601 01a6 BD020000 		.4byte	.LASF23
 602 01aa 01       		.byte	0x1
 603 01ab 0501     		.2byte	0x105
 604 01ad 00000000 		.4byte	.LFB7
 605 01b1 1C000000 		.4byte	.LFE7-.LFB7
 606 01b5 01       		.uleb128 0x1
 607 01b6 9C       		.byte	0x9c
 608 01b7 CC010000 		.4byte	0x1cc
 609 01bb 0C       		.uleb128 0xc
 610 01bc 58010000 		.4byte	.LASF25
 611 01c0 01       		.byte	0x1
 612 01c1 0501     		.2byte	0x105
 613 01c3 6B000000 		.4byte	0x6b
 614 01c7 CB000000 		.4byte	.LLST4
 615 01cb 00       		.byte	0
 616 01cc 06       		.uleb128 0x6
 617 01cd 3F010000 		.4byte	.LASF26
 618 01d1 01       		.byte	0x1
 619 01d2 5D       		.byte	0x5d
 620 01d3 00000000 		.4byte	.LFB2
 621 01d7 0A000000 		.4byte	.LFE2-.LFB2
 622 01db 01       		.uleb128 0x1
 623 01dc 9C       		.byte	0x9c
 624 01dd F1010000 		.4byte	0x1f1
 625 01e1 0D       		.uleb128 0xd
 626 01e2 08000000 		.4byte	.LVL16
 627 01e6 A5010000 		.4byte	0x1a5
 628 01ea 0E       		.uleb128 0xe
 629 01eb 01       		.uleb128 0x1
 630 01ec 50       		.byte	0x50
 631 01ed 01       		.uleb128 0x1
 632 01ee 31       		.byte	0x31
 633 01ef 00       		.byte	0
 634 01f0 00       		.byte	0
 635 01f1 06       		.uleb128 0x6
 636 01f2 A3020000 		.4byte	.LASF27
 637 01f6 01       		.byte	0x1
 638 01f7 2B       		.byte	0x2b
 639 01f8 00000000 		.4byte	.LFB0
 640 01fc 1C000000 		.4byte	.LFE0-.LFB0
 641 0200 01       		.uleb128 0x1
 642 0201 9C       		.byte	0x9c
 643 0202 19020000 		.4byte	0x219
 644 0206 08       		.uleb128 0x8
 645 0207 0C000000 		.4byte	.LVL17
 646 020b CC010000 		.4byte	0x1cc
 647 020f 08       		.uleb128 0x8
 648 0210 16000000 		.4byte	.LVL18
 649 0214 F8000000 		.4byte	0xf8
 650 0218 00       		.byte	0
 651 0219 0F       		.uleb128 0xf
 652 021a 06000000 		.4byte	.LASF35
 653 021e 01       		.byte	0x1
 654 021f 1A01     		.2byte	0x11a
 655 0221 6B000000 		.4byte	0x6b
ARM GAS  C:\Users\natha\AppData\Local\Temp\ccy8crBk.s 			page 20


 656 0225 00000000 		.4byte	.LFB8
 657 0229 10000000 		.4byte	.LFE8-.LFB8
 658 022d 01       		.uleb128 0x1
 659 022e 9C       		.byte	0x9c
 660 022f 0B       		.uleb128 0xb
 661 0230 27000000 		.4byte	.LASF28
 662 0234 01       		.byte	0x1
 663 0235 2E01     		.2byte	0x12e
 664 0237 00000000 		.4byte	.LFB9
 665 023b 0C000000 		.4byte	.LFE9-.LFB9
 666 023f 01       		.uleb128 0x1
 667 0240 9C       		.byte	0x9c
 668 0241 54020000 		.4byte	0x254
 669 0245 10       		.uleb128 0x10
 670 0246 6F010000 		.4byte	.LASF29
 671 024a 01       		.byte	0x1
 672 024b 2E01     		.2byte	0x12e
 673 024d 77000000 		.4byte	0x77
 674 0251 01       		.uleb128 0x1
 675 0252 50       		.byte	0x50
 676 0253 00       		.byte	0
 677 0254 11       		.uleb128 0x11
 678 0255 50000000 		.4byte	.LASF31
 679 0259 01       		.byte	0x1
 680 025a 8701     		.2byte	0x187
 681 025c 77000000 		.4byte	0x77
 682 0260 00000000 		.4byte	.LFB10
 683 0264 28000000 		.4byte	.LFE10-.LFB10
 684 0268 01       		.uleb128 0x1
 685 0269 9C       		.byte	0x9c
 686 026a 8C020000 		.4byte	0x28c
 687 026e 12       		.uleb128 0x12
 688 026f 49000000 		.4byte	.LASF22
 689 0273 01       		.byte	0x1
 690 0274 8901     		.2byte	0x189
 691 0276 77000000 		.4byte	0x77
 692 027a 01       		.uleb128 0x1
 693 027b 50       		.byte	0x50
 694 027c 0D       		.uleb128 0xd
 695 027d 0E000000 		.4byte	.LVL20
 696 0281 6D010000 		.4byte	0x16d
 697 0285 0E       		.uleb128 0xe
 698 0286 01       		.uleb128 0x1
 699 0287 50       		.byte	0x50
 700 0288 01       		.uleb128 0x1
 701 0289 32       		.byte	0x32
 702 028a 00       		.byte	0
 703 028b 00       		.byte	0
 704 028c 13       		.uleb128 0x13
 705 028d 9F000000 		.4byte	.LASF36
 706 0291 01       		.byte	0x1
 707 0292 13       		.byte	0x13
 708 0293 6B000000 		.4byte	0x6b
 709 0297 05       		.uleb128 0x5
 710 0298 03       		.byte	0x3
 711 0299 00000000 		.4byte	ConsolePort_2_RegD0_initVar
 712 029d 14       		.uleb128 0x14
ARM GAS  C:\Users\natha\AppData\Local\Temp\ccy8crBk.s 			page 21


 713 029e 79010000 		.4byte	.LASF37
 714 02a2 03       		.byte	0x3
 715 02a3 7D       		.byte	0x7d
 716 02a4 6B000000 		.4byte	0x6b
 717 02a8 15       		.uleb128 0x15
 718 02a9 9D010000 		.4byte	.LASF38
 719 02ad 03       		.byte	0x3
 720 02ae 7E       		.byte	0x7e
 721 02af 16       		.uleb128 0x16
 722 02b0 6B000000 		.4byte	0x6b
 723 02b4 00       		.byte	0
 724 02b5 00       		.byte	0
 725              		.section	.debug_abbrev,"",%progbits
 726              	.Ldebug_abbrev0:
 727 0000 01       		.uleb128 0x1
 728 0001 11       		.uleb128 0x11
 729 0002 01       		.byte	0x1
 730 0003 25       		.uleb128 0x25
 731 0004 0E       		.uleb128 0xe
 732 0005 13       		.uleb128 0x13
 733 0006 0B       		.uleb128 0xb
 734 0007 03       		.uleb128 0x3
 735 0008 0E       		.uleb128 0xe
 736 0009 1B       		.uleb128 0x1b
 737 000a 0E       		.uleb128 0xe
 738 000b 55       		.uleb128 0x55
 739 000c 17       		.uleb128 0x17
 740 000d 11       		.uleb128 0x11
 741 000e 01       		.uleb128 0x1
 742 000f 10       		.uleb128 0x10
 743 0010 17       		.uleb128 0x17
 744 0011 00       		.byte	0
 745 0012 00       		.byte	0
 746 0013 02       		.uleb128 0x2
 747 0014 24       		.uleb128 0x24
 748 0015 00       		.byte	0
 749 0016 0B       		.uleb128 0xb
 750 0017 0B       		.uleb128 0xb
 751 0018 3E       		.uleb128 0x3e
 752 0019 0B       		.uleb128 0xb
 753 001a 03       		.uleb128 0x3
 754 001b 0E       		.uleb128 0xe
 755 001c 00       		.byte	0
 756 001d 00       		.byte	0
 757 001e 03       		.uleb128 0x3
 758 001f 24       		.uleb128 0x24
 759 0020 00       		.byte	0
 760 0021 0B       		.uleb128 0xb
 761 0022 0B       		.uleb128 0xb
 762 0023 3E       		.uleb128 0x3e
 763 0024 0B       		.uleb128 0xb
 764 0025 03       		.uleb128 0x3
 765 0026 08       		.uleb128 0x8
 766 0027 00       		.byte	0
 767 0028 00       		.byte	0
 768 0029 04       		.uleb128 0x4
 769 002a 16       		.uleb128 0x16
ARM GAS  C:\Users\natha\AppData\Local\Temp\ccy8crBk.s 			page 22


 770 002b 00       		.byte	0
 771 002c 03       		.uleb128 0x3
 772 002d 0E       		.uleb128 0xe
 773 002e 3A       		.uleb128 0x3a
 774 002f 0B       		.uleb128 0xb
 775 0030 3B       		.uleb128 0x3b
 776 0031 05       		.uleb128 0x5
 777 0032 49       		.uleb128 0x49
 778 0033 13       		.uleb128 0x13
 779 0034 00       		.byte	0
 780 0035 00       		.byte	0
 781 0036 05       		.uleb128 0x5
 782 0037 35       		.uleb128 0x35
 783 0038 00       		.byte	0
 784 0039 49       		.uleb128 0x49
 785 003a 13       		.uleb128 0x13
 786 003b 00       		.byte	0
 787 003c 00       		.byte	0
 788 003d 06       		.uleb128 0x6
 789 003e 2E       		.uleb128 0x2e
 790 003f 01       		.byte	0x1
 791 0040 3F       		.uleb128 0x3f
 792 0041 19       		.uleb128 0x19
 793 0042 03       		.uleb128 0x3
 794 0043 0E       		.uleb128 0xe
 795 0044 3A       		.uleb128 0x3a
 796 0045 0B       		.uleb128 0xb
 797 0046 3B       		.uleb128 0x3b
 798 0047 0B       		.uleb128 0xb
 799 0048 27       		.uleb128 0x27
 800 0049 19       		.uleb128 0x19
 801 004a 11       		.uleb128 0x11
 802 004b 01       		.uleb128 0x1
 803 004c 12       		.uleb128 0x12
 804 004d 06       		.uleb128 0x6
 805 004e 40       		.uleb128 0x40
 806 004f 18       		.uleb128 0x18
 807 0050 9742     		.uleb128 0x2117
 808 0052 19       		.uleb128 0x19
 809 0053 01       		.uleb128 0x1
 810 0054 13       		.uleb128 0x13
 811 0055 00       		.byte	0
 812 0056 00       		.byte	0
 813 0057 07       		.uleb128 0x7
 814 0058 34       		.uleb128 0x34
 815 0059 00       		.byte	0
 816 005a 03       		.uleb128 0x3
 817 005b 0E       		.uleb128 0xe
 818 005c 3A       		.uleb128 0x3a
 819 005d 0B       		.uleb128 0xb
 820 005e 3B       		.uleb128 0x3b
 821 005f 0B       		.uleb128 0xb
 822 0060 49       		.uleb128 0x49
 823 0061 13       		.uleb128 0x13
 824 0062 02       		.uleb128 0x2
 825 0063 17       		.uleb128 0x17
 826 0064 00       		.byte	0
ARM GAS  C:\Users\natha\AppData\Local\Temp\ccy8crBk.s 			page 23


 827 0065 00       		.byte	0
 828 0066 08       		.uleb128 0x8
 829 0067 898201   		.uleb128 0x4109
 830 006a 00       		.byte	0
 831 006b 11       		.uleb128 0x11
 832 006c 01       		.uleb128 0x1
 833 006d 31       		.uleb128 0x31
 834 006e 13       		.uleb128 0x13
 835 006f 00       		.byte	0
 836 0070 00       		.byte	0
 837 0071 09       		.uleb128 0x9
 838 0072 2E       		.uleb128 0x2e
 839 0073 01       		.byte	0x1
 840 0074 3F       		.uleb128 0x3f
 841 0075 19       		.uleb128 0x19
 842 0076 03       		.uleb128 0x3
 843 0077 0E       		.uleb128 0xe
 844 0078 3A       		.uleb128 0x3a
 845 0079 0B       		.uleb128 0xb
 846 007a 3B       		.uleb128 0x3b
 847 007b 0B       		.uleb128 0xb
 848 007c 27       		.uleb128 0x27
 849 007d 19       		.uleb128 0x19
 850 007e 49       		.uleb128 0x49
 851 007f 13       		.uleb128 0x13
 852 0080 11       		.uleb128 0x11
 853 0081 01       		.uleb128 0x1
 854 0082 12       		.uleb128 0x12
 855 0083 06       		.uleb128 0x6
 856 0084 40       		.uleb128 0x40
 857 0085 18       		.uleb128 0x18
 858 0086 9742     		.uleb128 0x2117
 859 0088 19       		.uleb128 0x19
 860 0089 01       		.uleb128 0x1
 861 008a 13       		.uleb128 0x13
 862 008b 00       		.byte	0
 863 008c 00       		.byte	0
 864 008d 0A       		.uleb128 0xa
 865 008e 05       		.uleb128 0x5
 866 008f 00       		.byte	0
 867 0090 03       		.uleb128 0x3
 868 0091 0E       		.uleb128 0xe
 869 0092 3A       		.uleb128 0x3a
 870 0093 0B       		.uleb128 0xb
 871 0094 3B       		.uleb128 0x3b
 872 0095 0B       		.uleb128 0xb
 873 0096 49       		.uleb128 0x49
 874 0097 13       		.uleb128 0x13
 875 0098 02       		.uleb128 0x2
 876 0099 17       		.uleb128 0x17
 877 009a 00       		.byte	0
 878 009b 00       		.byte	0
 879 009c 0B       		.uleb128 0xb
 880 009d 2E       		.uleb128 0x2e
 881 009e 01       		.byte	0x1
 882 009f 3F       		.uleb128 0x3f
 883 00a0 19       		.uleb128 0x19
ARM GAS  C:\Users\natha\AppData\Local\Temp\ccy8crBk.s 			page 24


 884 00a1 03       		.uleb128 0x3
 885 00a2 0E       		.uleb128 0xe
 886 00a3 3A       		.uleb128 0x3a
 887 00a4 0B       		.uleb128 0xb
 888 00a5 3B       		.uleb128 0x3b
 889 00a6 05       		.uleb128 0x5
 890 00a7 27       		.uleb128 0x27
 891 00a8 19       		.uleb128 0x19
 892 00a9 11       		.uleb128 0x11
 893 00aa 01       		.uleb128 0x1
 894 00ab 12       		.uleb128 0x12
 895 00ac 06       		.uleb128 0x6
 896 00ad 40       		.uleb128 0x40
 897 00ae 18       		.uleb128 0x18
 898 00af 9742     		.uleb128 0x2117
 899 00b1 19       		.uleb128 0x19
 900 00b2 01       		.uleb128 0x1
 901 00b3 13       		.uleb128 0x13
 902 00b4 00       		.byte	0
 903 00b5 00       		.byte	0
 904 00b6 0C       		.uleb128 0xc
 905 00b7 05       		.uleb128 0x5
 906 00b8 00       		.byte	0
 907 00b9 03       		.uleb128 0x3
 908 00ba 0E       		.uleb128 0xe
 909 00bb 3A       		.uleb128 0x3a
 910 00bc 0B       		.uleb128 0xb
 911 00bd 3B       		.uleb128 0x3b
 912 00be 05       		.uleb128 0x5
 913 00bf 49       		.uleb128 0x49
 914 00c0 13       		.uleb128 0x13
 915 00c1 02       		.uleb128 0x2
 916 00c2 17       		.uleb128 0x17
 917 00c3 00       		.byte	0
 918 00c4 00       		.byte	0
 919 00c5 0D       		.uleb128 0xd
 920 00c6 898201   		.uleb128 0x4109
 921 00c9 01       		.byte	0x1
 922 00ca 11       		.uleb128 0x11
 923 00cb 01       		.uleb128 0x1
 924 00cc 31       		.uleb128 0x31
 925 00cd 13       		.uleb128 0x13
 926 00ce 00       		.byte	0
 927 00cf 00       		.byte	0
 928 00d0 0E       		.uleb128 0xe
 929 00d1 8A8201   		.uleb128 0x410a
 930 00d4 00       		.byte	0
 931 00d5 02       		.uleb128 0x2
 932 00d6 18       		.uleb128 0x18
 933 00d7 9142     		.uleb128 0x2111
 934 00d9 18       		.uleb128 0x18
 935 00da 00       		.byte	0
 936 00db 00       		.byte	0
 937 00dc 0F       		.uleb128 0xf
 938 00dd 2E       		.uleb128 0x2e
 939 00de 00       		.byte	0
 940 00df 3F       		.uleb128 0x3f
ARM GAS  C:\Users\natha\AppData\Local\Temp\ccy8crBk.s 			page 25


 941 00e0 19       		.uleb128 0x19
 942 00e1 03       		.uleb128 0x3
 943 00e2 0E       		.uleb128 0xe
 944 00e3 3A       		.uleb128 0x3a
 945 00e4 0B       		.uleb128 0xb
 946 00e5 3B       		.uleb128 0x3b
 947 00e6 05       		.uleb128 0x5
 948 00e7 27       		.uleb128 0x27
 949 00e8 19       		.uleb128 0x19
 950 00e9 49       		.uleb128 0x49
 951 00ea 13       		.uleb128 0x13
 952 00eb 11       		.uleb128 0x11
 953 00ec 01       		.uleb128 0x1
 954 00ed 12       		.uleb128 0x12
 955 00ee 06       		.uleb128 0x6
 956 00ef 40       		.uleb128 0x40
 957 00f0 18       		.uleb128 0x18
 958 00f1 9742     		.uleb128 0x2117
 959 00f3 19       		.uleb128 0x19
 960 00f4 00       		.byte	0
 961 00f5 00       		.byte	0
 962 00f6 10       		.uleb128 0x10
 963 00f7 05       		.uleb128 0x5
 964 00f8 00       		.byte	0
 965 00f9 03       		.uleb128 0x3
 966 00fa 0E       		.uleb128 0xe
 967 00fb 3A       		.uleb128 0x3a
 968 00fc 0B       		.uleb128 0xb
 969 00fd 3B       		.uleb128 0x3b
 970 00fe 05       		.uleb128 0x5
 971 00ff 49       		.uleb128 0x49
 972 0100 13       		.uleb128 0x13
 973 0101 02       		.uleb128 0x2
 974 0102 18       		.uleb128 0x18
 975 0103 00       		.byte	0
 976 0104 00       		.byte	0
 977 0105 11       		.uleb128 0x11
 978 0106 2E       		.uleb128 0x2e
 979 0107 01       		.byte	0x1
 980 0108 3F       		.uleb128 0x3f
 981 0109 19       		.uleb128 0x19
 982 010a 03       		.uleb128 0x3
 983 010b 0E       		.uleb128 0xe
 984 010c 3A       		.uleb128 0x3a
 985 010d 0B       		.uleb128 0xb
 986 010e 3B       		.uleb128 0x3b
 987 010f 05       		.uleb128 0x5
 988 0110 27       		.uleb128 0x27
 989 0111 19       		.uleb128 0x19
 990 0112 49       		.uleb128 0x49
 991 0113 13       		.uleb128 0x13
 992 0114 11       		.uleb128 0x11
 993 0115 01       		.uleb128 0x1
 994 0116 12       		.uleb128 0x12
 995 0117 06       		.uleb128 0x6
 996 0118 40       		.uleb128 0x40
 997 0119 18       		.uleb128 0x18
ARM GAS  C:\Users\natha\AppData\Local\Temp\ccy8crBk.s 			page 26


 998 011a 9742     		.uleb128 0x2117
 999 011c 19       		.uleb128 0x19
 1000 011d 01       		.uleb128 0x1
 1001 011e 13       		.uleb128 0x13
 1002 011f 00       		.byte	0
 1003 0120 00       		.byte	0
 1004 0121 12       		.uleb128 0x12
 1005 0122 34       		.uleb128 0x34
 1006 0123 00       		.byte	0
 1007 0124 03       		.uleb128 0x3
 1008 0125 0E       		.uleb128 0xe
 1009 0126 3A       		.uleb128 0x3a
 1010 0127 0B       		.uleb128 0xb
 1011 0128 3B       		.uleb128 0x3b
 1012 0129 05       		.uleb128 0x5
 1013 012a 49       		.uleb128 0x49
 1014 012b 13       		.uleb128 0x13
 1015 012c 02       		.uleb128 0x2
 1016 012d 18       		.uleb128 0x18
 1017 012e 00       		.byte	0
 1018 012f 00       		.byte	0
 1019 0130 13       		.uleb128 0x13
 1020 0131 34       		.uleb128 0x34
 1021 0132 00       		.byte	0
 1022 0133 03       		.uleb128 0x3
 1023 0134 0E       		.uleb128 0xe
 1024 0135 3A       		.uleb128 0x3a
 1025 0136 0B       		.uleb128 0xb
 1026 0137 3B       		.uleb128 0x3b
 1027 0138 0B       		.uleb128 0xb
 1028 0139 49       		.uleb128 0x49
 1029 013a 13       		.uleb128 0x13
 1030 013b 3F       		.uleb128 0x3f
 1031 013c 19       		.uleb128 0x19
 1032 013d 02       		.uleb128 0x2
 1033 013e 18       		.uleb128 0x18
 1034 013f 00       		.byte	0
 1035 0140 00       		.byte	0
 1036 0141 14       		.uleb128 0x14
 1037 0142 2E       		.uleb128 0x2e
 1038 0143 00       		.byte	0
 1039 0144 3F       		.uleb128 0x3f
 1040 0145 19       		.uleb128 0x19
 1041 0146 03       		.uleb128 0x3
 1042 0147 0E       		.uleb128 0xe
 1043 0148 3A       		.uleb128 0x3a
 1044 0149 0B       		.uleb128 0xb
 1045 014a 3B       		.uleb128 0x3b
 1046 014b 0B       		.uleb128 0xb
 1047 014c 27       		.uleb128 0x27
 1048 014d 19       		.uleb128 0x19
 1049 014e 49       		.uleb128 0x49
 1050 014f 13       		.uleb128 0x13
 1051 0150 3C       		.uleb128 0x3c
 1052 0151 19       		.uleb128 0x19
 1053 0152 00       		.byte	0
 1054 0153 00       		.byte	0
ARM GAS  C:\Users\natha\AppData\Local\Temp\ccy8crBk.s 			page 27


 1055 0154 15       		.uleb128 0x15
 1056 0155 2E       		.uleb128 0x2e
 1057 0156 01       		.byte	0x1
 1058 0157 3F       		.uleb128 0x3f
 1059 0158 19       		.uleb128 0x19
 1060 0159 03       		.uleb128 0x3
 1061 015a 0E       		.uleb128 0xe
 1062 015b 3A       		.uleb128 0x3a
 1063 015c 0B       		.uleb128 0xb
 1064 015d 3B       		.uleb128 0x3b
 1065 015e 0B       		.uleb128 0xb
 1066 015f 27       		.uleb128 0x27
 1067 0160 19       		.uleb128 0x19
 1068 0161 3C       		.uleb128 0x3c
 1069 0162 19       		.uleb128 0x19
 1070 0163 00       		.byte	0
 1071 0164 00       		.byte	0
 1072 0165 16       		.uleb128 0x16
 1073 0166 05       		.uleb128 0x5
 1074 0167 00       		.byte	0
 1075 0168 49       		.uleb128 0x49
 1076 0169 13       		.uleb128 0x13
 1077 016a 00       		.byte	0
 1078 016b 00       		.byte	0
 1079 016c 00       		.byte	0
 1080              		.section	.debug_loc,"",%progbits
 1081              	.Ldebug_loc0:
 1082              	.LLST0:
 1083 0000 06000000 		.4byte	.LVL0
 1084 0004 13000000 		.4byte	.LVL1-1
 1085 0008 0100     		.2byte	0x1
 1086 000a 50       		.byte	0x50
 1087 000b 00000000 		.4byte	0
 1088 000f 00000000 		.4byte	0
 1089              	.LLST1:
 1090 0013 06000000 		.4byte	.LVL3
 1091 0017 13000000 		.4byte	.LVL4-1
 1092 001b 0100     		.2byte	0x1
 1093 001d 50       		.byte	0x50
 1094 001e 00000000 		.4byte	0
 1095 0022 00000000 		.4byte	0
 1096              	.LLST2:
 1097 0026 00000000 		.4byte	.LVL6
 1098 002a 14000000 		.4byte	.LVL7
 1099 002e 0100     		.2byte	0x1
 1100 0030 50       		.byte	0x50
 1101 0031 14000000 		.4byte	.LVL7
 1102 0035 16000000 		.4byte	.LVL8
 1103 0039 0400     		.2byte	0x4
 1104 003b F3       		.byte	0xf3
 1105 003c 01       		.uleb128 0x1
 1106 003d 50       		.byte	0x50
 1107 003e 9F       		.byte	0x9f
 1108 003f 16000000 		.4byte	.LVL8
 1109 0043 18000000 		.4byte	.LVL9
 1110 0047 0100     		.2byte	0x1
 1111 0049 50       		.byte	0x50
ARM GAS  C:\Users\natha\AppData\Local\Temp\ccy8crBk.s 			page 28


 1112 004a 18000000 		.4byte	.LVL9
 1113 004e 1A000000 		.4byte	.LVL10
 1114 0052 0400     		.2byte	0x4
 1115 0054 F3       		.byte	0xf3
 1116 0055 01       		.uleb128 0x1
 1117 0056 50       		.byte	0x50
 1118 0057 9F       		.byte	0x9f
 1119 0058 1A000000 		.4byte	.LVL10
 1120 005c 1C000000 		.4byte	.LVL11
 1121 0060 0100     		.2byte	0x1
 1122 0062 50       		.byte	0x50
 1123 0063 1C000000 		.4byte	.LVL11
 1124 0067 1E000000 		.4byte	.LVL12
 1125 006b 0400     		.2byte	0x4
 1126 006d F3       		.byte	0xf3
 1127 006e 01       		.uleb128 0x1
 1128 006f 50       		.byte	0x50
 1129 0070 9F       		.byte	0x9f
 1130 0071 1E000000 		.4byte	.LVL12
 1131 0075 20000000 		.4byte	.LVL13
 1132 0079 0100     		.2byte	0x1
 1133 007b 50       		.byte	0x50
 1134 007c 20000000 		.4byte	.LVL13
 1135 0080 28000000 		.4byte	.LFE6
 1136 0084 0400     		.2byte	0x4
 1137 0086 F3       		.byte	0xf3
 1138 0087 01       		.uleb128 0x1
 1139 0088 50       		.byte	0x50
 1140 0089 9F       		.byte	0x9f
 1141 008a 00000000 		.4byte	0
 1142 008e 00000000 		.4byte	0
 1143              	.LLST3:
 1144 0092 00000000 		.4byte	.LVL6
 1145 0096 16000000 		.4byte	.LVL8
 1146 009a 0300     		.2byte	0x3
 1147 009c 09       		.byte	0x9
 1148 009d FE       		.byte	0xfe
 1149 009e 9F       		.byte	0x9f
 1150 009f 16000000 		.4byte	.LVL8
 1151 00a3 1A000000 		.4byte	.LVL10
 1152 00a7 0200     		.2byte	0x2
 1153 00a9 31       		.byte	0x31
 1154 00aa 9F       		.byte	0x9f
 1155 00ab 1A000000 		.4byte	.LVL10
 1156 00af 20000000 		.4byte	.LVL13
 1157 00b3 0300     		.2byte	0x3
 1158 00b5 09       		.byte	0x9
 1159 00b6 FE       		.byte	0xfe
 1160 00b7 9F       		.byte	0x9f
 1161 00b8 20000000 		.4byte	.LVL13
 1162 00bc 28000000 		.4byte	.LFE6
 1163 00c0 0100     		.2byte	0x1
 1164 00c2 50       		.byte	0x50
 1165 00c3 00000000 		.4byte	0
 1166 00c7 00000000 		.4byte	0
 1167              	.LLST4:
 1168 00cb 00000000 		.4byte	.LVL14
ARM GAS  C:\Users\natha\AppData\Local\Temp\ccy8crBk.s 			page 29


 1169 00cf 10000000 		.4byte	.LVL15
 1170 00d3 0100     		.2byte	0x1
 1171 00d5 50       		.byte	0x50
 1172 00d6 10000000 		.4byte	.LVL15
 1173 00da 1C000000 		.4byte	.LFE7
 1174 00de 0400     		.2byte	0x4
 1175 00e0 F3       		.byte	0xf3
 1176 00e1 01       		.uleb128 0x1
 1177 00e2 50       		.byte	0x50
 1178 00e3 9F       		.byte	0x9f
 1179 00e4 00000000 		.4byte	0
 1180 00e8 00000000 		.4byte	0
 1181              		.section	.debug_aranges,"",%progbits
 1182 0000 6C000000 		.4byte	0x6c
 1183 0004 0200     		.2byte	0x2
 1184 0006 00000000 		.4byte	.Ldebug_info0
 1185 000a 04       		.byte	0x4
 1186 000b 00       		.byte	0
 1187 000c 0000     		.2byte	0
 1188 000e 0000     		.2byte	0
 1189 0010 00000000 		.4byte	.LFB4
 1190 0014 1C000000 		.4byte	.LFE4-.LFB4
 1191 0018 00000000 		.4byte	.LFB1
 1192 001c 18000000 		.4byte	.LFE1-.LFB1
 1193 0020 00000000 		.4byte	.LFB5
 1194 0024 1C000000 		.4byte	.LFE5-.LFB5
 1195 0028 00000000 		.4byte	.LFB3
 1196 002c 18000000 		.4byte	.LFE3-.LFB3
 1197 0030 00000000 		.4byte	.LFB6
 1198 0034 28000000 		.4byte	.LFE6-.LFB6
 1199 0038 00000000 		.4byte	.LFB7
 1200 003c 1C000000 		.4byte	.LFE7-.LFB7
 1201 0040 00000000 		.4byte	.LFB2
 1202 0044 0A000000 		.4byte	.LFE2-.LFB2
 1203 0048 00000000 		.4byte	.LFB0
 1204 004c 1C000000 		.4byte	.LFE0-.LFB0
 1205 0050 00000000 		.4byte	.LFB8
 1206 0054 10000000 		.4byte	.LFE8-.LFB8
 1207 0058 00000000 		.4byte	.LFB9
 1208 005c 0C000000 		.4byte	.LFE9-.LFB9
 1209 0060 00000000 		.4byte	.LFB10
 1210 0064 28000000 		.4byte	.LFE10-.LFB10
 1211 0068 00000000 		.4byte	0
 1212 006c 00000000 		.4byte	0
 1213              		.section	.debug_ranges,"",%progbits
 1214              	.Ldebug_ranges0:
 1215 0000 00000000 		.4byte	.LFB4
 1216 0004 1C000000 		.4byte	.LFE4
 1217 0008 00000000 		.4byte	.LFB1
 1218 000c 18000000 		.4byte	.LFE1
 1219 0010 00000000 		.4byte	.LFB5
 1220 0014 1C000000 		.4byte	.LFE5
 1221 0018 00000000 		.4byte	.LFB3
 1222 001c 18000000 		.4byte	.LFE3
 1223 0020 00000000 		.4byte	.LFB6
 1224 0024 28000000 		.4byte	.LFE6
 1225 0028 00000000 		.4byte	.LFB7
ARM GAS  C:\Users\natha\AppData\Local\Temp\ccy8crBk.s 			page 30


 1226 002c 1C000000 		.4byte	.LFE7
 1227 0030 00000000 		.4byte	.LFB2
 1228 0034 0A000000 		.4byte	.LFE2
 1229 0038 00000000 		.4byte	.LFB0
 1230 003c 1C000000 		.4byte	.LFE0
 1231 0040 00000000 		.4byte	.LFB8
 1232 0044 10000000 		.4byte	.LFE8
 1233 0048 00000000 		.4byte	.LFB9
 1234 004c 0C000000 		.4byte	.LFE9
 1235 0050 00000000 		.4byte	.LFB10
 1236 0054 28000000 		.4byte	.LFE10
 1237 0058 00000000 		.4byte	0
 1238 005c 00000000 		.4byte	0
 1239              		.section	.debug_line,"",%progbits
 1240              	.Ldebug_line0:
 1241 0000 3A010000 		.section	.debug_str,"MS",%progbits,1
 1241      02005B00 
 1241      00000201 
 1241      FB0E0D00 
 1241      01010101 
 1242              	.LASF15:
 1243 0000 72656731 		.ascii	"reg16\000"
 1243      3600
 1244              	.LASF35:
 1245 0006 436F6E73 		.ascii	"ConsolePort_2_RegD0_GetIntStatus\000"
 1245      6F6C6550 
 1245      6F72745F 
 1245      325F5265 
 1245      6744305F 
 1246              	.LASF28:
 1247 0027 436F6E73 		.ascii	"ConsolePort_2_RegD0_WriteRegValue\000"
 1247      6F6C6550 
 1247      6F72745F 
 1247      325F5265 
 1247      6744305F 
 1248              	.LASF22:
 1249 0049 72657375 		.ascii	"result\000"
 1249      6C7400
 1250              	.LASF31:
 1251 0050 436F6E73 		.ascii	"ConsolePort_2_RegD0_ReadRegValue\000"
 1251      6F6C6550 
 1251      6F72745F 
 1251      325F5265 
 1251      6744305F 
 1252              	.LASF3:
 1253 0071 73686F72 		.ascii	"short unsigned int\000"
 1253      7420756E 
 1253      7369676E 
 1253      65642069 
 1253      6E7400
 1254              	.LASF18:
 1255 0084 436F6E73 		.ascii	"ConsolePort_2_RegD0_Enable\000"
 1255      6F6C6550 
 1255      6F72745F 
 1255      325F5265 
 1255      6744305F 
 1256              	.LASF36:
ARM GAS  C:\Users\natha\AppData\Local\Temp\ccy8crBk.s 			page 31


 1257 009f 436F6E73 		.ascii	"ConsolePort_2_RegD0_initVar\000"
 1257      6F6C6550 
 1257      6F72745F 
 1257      325F5265 
 1257      6744305F 
 1258              	.LASF19:
 1259 00bb 436F6E73 		.ascii	"ConsolePort_2_RegD0_DisableInt\000"
 1259      6F6C6550 
 1259      6F72745F 
 1259      325F5265 
 1259      6744305F 
 1260              	.LASF11:
 1261 00da 666C6F61 		.ascii	"float\000"
 1261      7400
 1262              	.LASF7:
 1263 00e0 6C6F6E67 		.ascii	"long long unsigned int\000"
 1263      206C6F6E 
 1263      6720756E 
 1263      7369676E 
 1263      65642069 
 1264              	.LASF1:
 1265 00f7 756E7369 		.ascii	"unsigned char\000"
 1265      676E6564 
 1265      20636861 
 1265      7200
 1266              	.LASF14:
 1267 0105 72656738 		.ascii	"reg8\000"
 1267      00
 1268              	.LASF20:
 1269 010a 696E7465 		.ascii	"interruptState\000"
 1269      72727570 
 1269      74537461 
 1269      746500
 1270              	.LASF5:
 1271 0119 6C6F6E67 		.ascii	"long unsigned int\000"
 1271      20756E73 
 1271      69676E65 
 1271      6420696E 
 1271      7400
 1272              	.LASF9:
 1273 012b 75696E74 		.ascii	"uint8\000"
 1273      3800
 1274              	.LASF24:
 1275 0131 6669666F 		.ascii	"fifoId\000"
 1275      496400
 1276              	.LASF12:
 1277 0138 646F7562 		.ascii	"double\000"
 1277      6C6500
 1278              	.LASF26:
 1279 013f 436F6E73 		.ascii	"ConsolePort_2_RegD0_Init\000"
 1279      6F6C6550 
 1279      6F72745F 
 1279      325F5265 
 1279      6744305F 
 1280              	.LASF25:
 1281 0158 696E7465 		.ascii	"interruptSource\000"
 1281      72727570 
ARM GAS  C:\Users\natha\AppData\Local\Temp\ccy8crBk.s 			page 32


 1281      74536F75 
 1281      72636500 
 1282              	.LASF10:
 1283 0168 75696E74 		.ascii	"uint16\000"
 1283      313600
 1284              	.LASF29:
 1285 016f 73686966 		.ascii	"shiftData\000"
 1285      74446174 
 1285      6100
 1286              	.LASF37:
 1287 0179 4379456E 		.ascii	"CyEnterCriticalSection\000"
 1287      74657243 
 1287      72697469 
 1287      63616C53 
 1287      65637469 
 1288              	.LASF8:
 1289 0190 756E7369 		.ascii	"unsigned int\000"
 1289      676E6564 
 1289      20696E74 
 1289      00
 1290              	.LASF38:
 1291 019d 43794578 		.ascii	"CyExitCriticalSection\000"
 1291      69744372 
 1291      69746963 
 1291      616C5365 
 1291      6374696F 
 1292              	.LASF33:
 1293 01b3 47656E65 		.ascii	"Generated_Source\\PSoC5\\ConsolePort_2_RegD0.c\000"
 1293      72617465 
 1293      645F536F 
 1293      75726365 
 1293      5C50536F 
 1294              	.LASF32:
 1295 01e0 474E5520 		.ascii	"GNU C 4.9.3 20150303 (release) [ARM/embedded-4_9-br"
 1295      4320342E 
 1295      392E3320 
 1295      32303135 
 1295      30333033 
 1296 0213 616E6368 		.ascii	"anch revision 221220] -mcpu=cortex-m3 -mthumb -g -O"
 1296      20726576 
 1296      6973696F 
 1296      6E203232 
 1296      31323230 
 1297 0246 67202D66 		.ascii	"g -ffunction-sections -ffat-lto-objects\000"
 1297      66756E63 
 1297      74696F6E 
 1297      2D736563 
 1297      74696F6E 
 1298              	.LASF21:
 1299 026e 436F6E73 		.ascii	"ConsolePort_2_RegD0_Stop\000"
 1299      6F6C6550 
 1299      6F72745F 
 1299      325F5265 
 1299      6744305F 
 1300              	.LASF16:
 1301 0287 73697A65 		.ascii	"sizetype\000"
 1301      74797065 
ARM GAS  C:\Users\natha\AppData\Local\Temp\ccy8crBk.s 			page 33


 1301      00
 1302              	.LASF6:
 1303 0290 6C6F6E67 		.ascii	"long long int\000"
 1303      206C6F6E 
 1303      6720696E 
 1303      7400
 1304              	.LASF13:
 1305 029e 63686172 		.ascii	"char\000"
 1305      00
 1306              	.LASF27:
 1307 02a3 436F6E73 		.ascii	"ConsolePort_2_RegD0_Start\000"
 1307      6F6C6550 
 1307      6F72745F 
 1307      325F5265 
 1307      6744305F 
 1308              	.LASF23:
 1309 02bd 436F6E73 		.ascii	"ConsolePort_2_RegD0_SetIntMode\000"
 1309      6F6C6550 
 1309      6F72745F 
 1309      325F5265 
 1309      6744305F 
 1310              	.LASF17:
 1311 02dc 436F6E73 		.ascii	"ConsolePort_2_RegD0_EnableInt\000"
 1311      6F6C6550 
 1311      6F72745F 
 1311      325F5265 
 1311      6744305F 
 1312              	.LASF2:
 1313 02fa 73686F72 		.ascii	"short int\000"
 1313      7420696E 
 1313      7400
 1314              	.LASF34:
 1315 0304 433A5C74 		.ascii	"C:\\tas-psoc-master\\TASBot.cydsn\000"
 1315      61732D70 
 1315      736F632D 
 1315      6D617374 
 1315      65725C54 
 1316              	.LASF4:
 1317 0324 6C6F6E67 		.ascii	"long int\000"
 1317      20696E74 
 1317      00
 1318              	.LASF0:
 1319 032d 7369676E 		.ascii	"signed char\000"
 1319      65642063 
 1319      68617200 
 1320              	.LASF30:
 1321 0339 436F6E73 		.ascii	"ConsolePort_2_RegD0_GetFIFOStatus\000"
 1321      6F6C6550 
 1321      6F72745F 
 1321      325F5265 
 1321      6744305F 
 1322              		.ident	"GCC: (GNU Tools for ARM Embedded Processors) 4.9.3 20150303 (release) [ARM/embedded-4_9-br
